%YAML 1.1
%TAG !u! tag:unity3d.com,2011:
--- !u!29 &1
OcclusionCullingSettings:
  m_ObjectHideFlags: 0
  serializedVersion: 2
  m_OcclusionBakeSettings:
    smallestOccluder: 5
    smallestHole: 0.25
    backfaceThreshold: 100
  m_SceneGUID: 00000000000000000000000000000000
  m_OcclusionCullingData: {fileID: 0}
--- !u!104 &2
RenderSettings:
  m_ObjectHideFlags: 0
  serializedVersion: 9
  m_Fog: 0
  m_FogColor: {r: 0.5, g: 0.5, b: 0.5, a: 1}
  m_FogMode: 3
  m_FogDensity: 0.04
  m_LinearFogStart: 0
  m_LinearFogEnd: 300
  m_AmbientSkyColor: {r: 0.5803922, g: 0.49019608, b: 0.4117647, a: 1}
  m_AmbientEquatorColor: {r: 0.114, g: 0.125, b: 0.133, a: 1}
  m_AmbientGroundColor: {r: 0.047, g: 0.043, b: 0.035, a: 1}
  m_AmbientIntensity: 1
  m_AmbientMode: 3
  m_SubtractiveShadowColor: {r: 0.42, g: 0.478, b: 0.627, a: 1}
  m_SkyboxMaterial: {fileID: 10304, guid: 0000000000000000f000000000000000, type: 0}
  m_HaloStrength: 0.5
  m_FlareStrength: 1
  m_FlareFadeSpeed: 3
  m_HaloTexture: {fileID: 0}
  m_SpotCookie: {fileID: 10001, guid: 0000000000000000e000000000000000, type: 0}
  m_DefaultReflectionMode: 0
  m_DefaultReflectionResolution: 256
  m_ReflectionBounces: 1
  m_ReflectionIntensity: 1
  m_CustomReflection: {fileID: 0}
  m_Sun: {fileID: 790749685}
  m_IndirectSpecularColor: {r: 0, g: 0, b: 0, a: 1}
  m_UseRadianceAmbientProbe: 0
--- !u!157 &3
LightmapSettings:
  m_ObjectHideFlags: 0
  serializedVersion: 11
  m_GIWorkflowMode: 0
  m_GISettings:
    serializedVersion: 2
    m_BounceScale: 1
    m_IndirectOutputScale: 1
    m_AlbedoBoost: 1
    m_TemporalCoherenceThreshold: 1
    m_EnvironmentLightingMode: 0
    m_EnableBakedLightmaps: 1
    m_EnableRealtimeLightmaps: 1
  m_LightmapEditorSettings:
    serializedVersion: 10
    m_Resolution: 2
    m_BakeResolution: 50
    m_AtlasSize: 1024
    m_AO: 0
    m_AOMaxDistance: 1
    m_CompAOExponent: 1
    m_CompAOExponentDirect: 0
    m_Padding: 2
    m_LightmapParameters: {fileID: 0}
    m_LightmapsBakeMode: 1
    m_TextureCompression: 1
    m_FinalGather: 0
    m_FinalGatherFiltering: 1
    m_FinalGatherRayCount: 256
    m_ReflectionCompression: 2
    m_MixedBakeMode: 2
    m_BakeBackend: 0
    m_PVRSampling: 1
    m_PVRDirectSampleCount: 32
    m_PVRSampleCount: 500
    m_PVRBounces: 2
    m_PVRFilterTypeDirect: 0
    m_PVRFilterTypeIndirect: 0
    m_PVRFilterTypeAO: 0
    m_PVRFilteringMode: 1
    m_PVRCulling: 1
    m_PVRFilteringGaussRadiusDirect: 1
    m_PVRFilteringGaussRadiusIndirect: 5
    m_PVRFilteringGaussRadiusAO: 2
    m_PVRFilteringAtrousPositionSigmaDirect: 0.5
    m_PVRFilteringAtrousPositionSigmaIndirect: 2
    m_PVRFilteringAtrousPositionSigmaAO: 1
    m_ShowResolutionOverlay: 1
  m_LightingDataAsset: {fileID: 112000002, guid: 11756c4f4b014d640afa92d47d9b114c,
    type: 2}
  m_UseShadowmask: 1
--- !u!196 &4
NavMeshSettings:
  serializedVersion: 2
  m_ObjectHideFlags: 0
  m_BuildSettings:
    serializedVersion: 2
    agentTypeID: 0
    agentRadius: 0.5
    agentHeight: 2
    agentSlope: 45
    agentClimb: 0.4
    ledgeDropHeight: 0
    maxJumpAcrossDistance: 0
    minRegionArea: 2
    manualCellSize: 0
    cellSize: 0.16666667
    manualTileSize: 0
    tileSize: 256
    accuratePlacement: 0
    debug:
      m_Flags: 0
  m_NavMeshData: {fileID: 0}
--- !u!1 &106506715
GameObject:
  m_ObjectHideFlags: 0
  m_CorrespondingSourceObject: {fileID: 0}
  m_PrefabInternal: {fileID: 0}
  serializedVersion: 6
  m_Component:
  - component: {fileID: 106506720}
  - component: {fileID: 106506719}
  - component: {fileID: 106506718}
  - component: {fileID: 106506717}
  - component: {fileID: 106506716}
  - component: {fileID: 106506721}
  m_Layer: 0
  m_Name: Main Camera
  m_TagString: MainCamera
  m_Icon: {fileID: 0}
  m_NavMeshLayer: 0
  m_StaticEditorFlags: 0
  m_IsActive: 1
--- !u!81 &106506716
AudioListener:
  m_ObjectHideFlags: 0
  m_CorrespondingSourceObject: {fileID: 0}
  m_PrefabInternal: {fileID: 0}
  m_GameObject: {fileID: 106506715}
  m_Enabled: 1
--- !u!124 &106506717
Behaviour:
  m_ObjectHideFlags: 0
  m_CorrespondingSourceObject: {fileID: 0}
  m_PrefabInternal: {fileID: 0}
  m_GameObject: {fileID: 106506715}
  m_Enabled: 1
--- !u!92 &106506718
Behaviour:
  m_ObjectHideFlags: 0
  m_CorrespondingSourceObject: {fileID: 0}
  m_PrefabInternal: {fileID: 0}
  m_GameObject: {fileID: 106506715}
  m_Enabled: 1
--- !u!20 &106506719
Camera:
  m_ObjectHideFlags: 0
  m_CorrespondingSourceObject: {fileID: 0}
  m_PrefabInternal: {fileID: 0}
  m_GameObject: {fileID: 106506715}
  m_Enabled: 1
  serializedVersion: 2
  m_ClearFlags: 2
  m_BackGroundColor: {r: 0.19215687, g: 0.3019608, b: 0.4745098, a: 0}
  m_projectionMatrixMode: 1
  m_SensorSize: {x: 36, y: 24}
  m_LensShift: {x: 0, y: 0}
  m_FocalLength: 50
  m_NormalizedViewPortRect:
    serializedVersion: 2
    x: 0
    y: 0
    width: 1
    height: 1
  near clip plane: 0.3
  far clip plane: 1000
  field of view: 60
  orthographic: 0
  orthographic size: 5
  m_Depth: -1
  m_CullingMask:
    serializedVersion: 2
    m_Bits: 4294967295
  m_RenderingPath: -1
  m_TargetTexture: {fileID: 0}
  m_TargetDisplay: 0
  m_TargetEye: 3
  m_HDR: 1
  m_AllowMSAA: 1
  m_AllowDynamicResolution: 0
  m_ForceIntoRT: 0
  m_OcclusionCulling: 1
  m_StereoConvergence: 10
  m_StereoSeparation: 0.022
--- !u!4 &106506720
Transform:
  m_ObjectHideFlags: 0
  m_CorrespondingSourceObject: {fileID: 0}
  m_PrefabInternal: {fileID: 0}
  m_GameObject: {fileID: 106506715}
  m_LocalRotation: {x: -0.091322556, y: 0.907747, z: -0.31031355, w: -0.26713493}
  m_LocalPosition: {x: 33.704163, y: 54.83438, z: 59.503548}
  m_LocalScale: {x: 1, y: 1, z: 1}
  m_Children: []
  m_Father: {fileID: 0}
  m_RootOrder: 0
  m_LocalEulerAnglesHint: {x: 13.147, y: -149.30801, z: 0}
--- !u!114 &106506721
MonoBehaviour:
  m_ObjectHideFlags: 0
  m_CorrespondingSourceObject: {fileID: 0}
  m_PrefabInternal: {fileID: 0}
  m_GameObject: {fileID: 106506715}
  m_Enabled: 1
  m_EditorHideFlags: 0
  m_Script: {fileID: 11500000, guid: 301eca71255100647bb9bad1d5641921, type: 3}
  m_Name: 
  m_EditorClassIdentifier: 
  shader: {fileID: 4800000, guid: 3d417cf48fde7da46b5a79811115e87f, type: 3}
--- !u!1001 &233802125
Prefab:
  m_ObjectHideFlags: 0
  serializedVersion: 2
  m_Modification:
    m_TransformParent: {fileID: 0}
    m_Modifications:
    - target: {fileID: 4281435771216012, guid: ba5ae975d72f0044c9183132ed90b3e6, type: 2}
      propertyPath: m_LocalPosition.x
      value: -3.6
      objectReference: {fileID: 0}
    - target: {fileID: 4281435771216012, guid: ba5ae975d72f0044c9183132ed90b3e6, type: 2}
      propertyPath: m_LocalPosition.y
      value: 2.5535097e-17
      objectReference: {fileID: 0}
    - target: {fileID: 4281435771216012, guid: ba5ae975d72f0044c9183132ed90b3e6, type: 2}
      propertyPath: m_LocalPosition.z
      value: -53
      objectReference: {fileID: 0}
    - target: {fileID: 4281435771216012, guid: ba5ae975d72f0044c9183132ed90b3e6, type: 2}
      propertyPath: m_LocalRotation.x
      value: 0
      objectReference: {fileID: 0}
    - target: {fileID: 4281435771216012, guid: ba5ae975d72f0044c9183132ed90b3e6, type: 2}
      propertyPath: m_LocalRotation.y
      value: -0
      objectReference: {fileID: 0}
    - target: {fileID: 4281435771216012, guid: ba5ae975d72f0044c9183132ed90b3e6, type: 2}
      propertyPath: m_LocalRotation.z
      value: -0
      objectReference: {fileID: 0}
    - target: {fileID: 4281435771216012, guid: ba5ae975d72f0044c9183132ed90b3e6, type: 2}
      propertyPath: m_LocalRotation.w
      value: 1
      objectReference: {fileID: 0}
    - target: {fileID: 4281435771216012, guid: ba5ae975d72f0044c9183132ed90b3e6, type: 2}
      propertyPath: m_RootOrder
      value: 5
      objectReference: {fileID: 0}
    m_RemovedComponents: []
  m_SourcePrefab: {fileID: 100100000, guid: ba5ae975d72f0044c9183132ed90b3e6, type: 2}
  m_RootGameObject: {fileID: 1605178263}
  m_IsPrefabAsset: 0
--- !u!1001 &278510417
Prefab:
  m_ObjectHideFlags: 0
  serializedVersion: 2
  m_Modification:
    m_TransformParent: {fileID: 0}
    m_Modifications:
    - target: {fileID: 4571635531416200, guid: 1fd044b5d1a726e42a64693cac18d795, type: 2}
      propertyPath: m_LocalPosition.x
      value: 28.013218
      objectReference: {fileID: 0}
    - target: {fileID: 4571635531416200, guid: 1fd044b5d1a726e42a64693cac18d795, type: 2}
      propertyPath: m_LocalPosition.y
      value: 2.3042822e-17
      objectReference: {fileID: 0}
    - target: {fileID: 4571635531416200, guid: 1fd044b5d1a726e42a64693cac18d795, type: 2}
      propertyPath: m_LocalPosition.z
      value: -53
      objectReference: {fileID: 0}
    - target: {fileID: 4571635531416200, guid: 1fd044b5d1a726e42a64693cac18d795, type: 2}
      propertyPath: m_LocalRotation.x
      value: 0
      objectReference: {fileID: 0}
    - target: {fileID: 4571635531416200, guid: 1fd044b5d1a726e42a64693cac18d795, type: 2}
      propertyPath: m_LocalRotation.y
      value: -0
      objectReference: {fileID: 0}
    - target: {fileID: 4571635531416200, guid: 1fd044b5d1a726e42a64693cac18d795, type: 2}
      propertyPath: m_LocalRotation.z
      value: -0
      objectReference: {fileID: 0}
    - target: {fileID: 4571635531416200, guid: 1fd044b5d1a726e42a64693cac18d795, type: 2}
      propertyPath: m_LocalRotation.w
      value: 1
      objectReference: {fileID: 0}
    - target: {fileID: 4571635531416200, guid: 1fd044b5d1a726e42a64693cac18d795, type: 2}
      propertyPath: m_RootOrder
      value: 6
      objectReference: {fileID: 0}
    m_RemovedComponents: []
  m_SourcePrefab: {fileID: 100100000, guid: 1fd044b5d1a726e42a64693cac18d795, type: 2}
  m_RootGameObject: {fileID: 1724789049}
  m_IsPrefabAsset: 0
--- !u!1001 &293769579
Prefab:
  m_ObjectHideFlags: 0
  serializedVersion: 2
  m_Modification:
    m_TransformParent: {fileID: 0}
    m_Modifications:
    - target: {fileID: 4773702438207688, guid: b833ab5c78c467f43844ed9e86306c1a, type: 2}
      propertyPath: m_LocalPosition.x
      value: -2.2999992
      objectReference: {fileID: 0}
    - target: {fileID: 4773702438207688, guid: b833ab5c78c467f43844ed9e86306c1a, type: 2}
      propertyPath: m_LocalPosition.y
      value: 6.9759977e-19
      objectReference: {fileID: 0}
    - target: {fileID: 4773702438207688, guid: b833ab5c78c467f43844ed9e86306c1a, type: 2}
      propertyPath: m_LocalPosition.z
      value: 30
      objectReference: {fileID: 0}
    - target: {fileID: 4773702438207688, guid: b833ab5c78c467f43844ed9e86306c1a, type: 2}
      propertyPath: m_LocalRotation.x
      value: 0
      objectReference: {fileID: 0}
    - target: {fileID: 4773702438207688, guid: b833ab5c78c467f43844ed9e86306c1a, type: 2}
      propertyPath: m_LocalRotation.y
      value: -0
      objectReference: {fileID: 0}
    - target: {fileID: 4773702438207688, guid: b833ab5c78c467f43844ed9e86306c1a, type: 2}
      propertyPath: m_LocalRotation.z
      value: -0
      objectReference: {fileID: 0}
    - target: {fileID: 4773702438207688, guid: b833ab5c78c467f43844ed9e86306c1a, type: 2}
      propertyPath: m_LocalRotation.w
      value: 1
      objectReference: {fileID: 0}
    - target: {fileID: 4773702438207688, guid: b833ab5c78c467f43844ed9e86306c1a, type: 2}
      propertyPath: m_RootOrder
      value: 14
      objectReference: {fileID: 0}
    m_RemovedComponents: []
  m_SourcePrefab: {fileID: 100100000, guid: b833ab5c78c467f43844ed9e86306c1a, type: 2}
  m_RootGameObject: {fileID: 1384451557}
  m_IsPrefabAsset: 0
--- !u!1 &444453672
GameObject:
  m_ObjectHideFlags: 0
  m_CorrespondingSourceObject: {fileID: 1048492925220806, guid: 7fc4490f0a1b22a4e9d9ae177d4febe4,
    type: 2}
  m_PrefabInternal: {fileID: 1930699879}
  serializedVersion: 6
  m_Component:
  - component: {fileID: 444453676}
  - component: {fileID: 444453675}
  - component: {fileID: 444453674}
  - component: {fileID: 444453673}
  m_Layer: 0
  m_Name: Skyscraper3_2
  m_TagString: Untagged
  m_Icon: {fileID: 0}
  m_NavMeshLayer: 0
  m_StaticEditorFlags: 0
  m_IsActive: 1
--- !u!65 &444453673
BoxCollider:
  m_ObjectHideFlags: 0
  m_CorrespondingSourceObject: {fileID: 65258824015655646, guid: 7fc4490f0a1b22a4e9d9ae177d4febe4,
    type: 2}
  m_PrefabInternal: {fileID: 1930699879}
  m_GameObject: {fileID: 444453672}
  m_Material: {fileID: 0}
  m_IsTrigger: 0
  m_Enabled: 1
  serializedVersion: 2
  m_Size: {x: 7.0624695, y: 26.13292, z: 6.852542}
  m_Center: {x: 0.002960205, y: 13.054926, z: -0.00047397614}
--- !u!23 &444453674
MeshRenderer:
  m_ObjectHideFlags: 0
  m_CorrespondingSourceObject: {fileID: 23096537792643996, guid: 7fc4490f0a1b22a4e9d9ae177d4febe4,
    type: 2}
  m_PrefabInternal: {fileID: 1930699879}
  m_GameObject: {fileID: 444453672}
  m_Enabled: 1
  m_CastShadows: 1
  m_ReceiveShadows: 1
  m_DynamicOccludee: 1
  m_MotionVectors: 1
  m_LightProbeUsage: 1
  m_ReflectionProbeUsage: 1
  m_RenderingLayerMask: 4294967295
  m_Materials:
  - {fileID: 2100000, guid: 14a1a7d8e75042e49b9c79853b65f46d, type: 2}
  - {fileID: 2100000, guid: 14a1a7d8e75042e49b9c79853b65f46d, type: 2}
  - {fileID: 2100000, guid: 14a1a7d8e75042e49b9c79853b65f46d, type: 2}
  - {fileID: 2100000, guid: 14a1a7d8e75042e49b9c79853b65f46d, type: 2}
  - {fileID: 2100000, guid: 14a1a7d8e75042e49b9c79853b65f46d, type: 2}
  m_StaticBatchInfo:
    firstSubMesh: 0
    subMeshCount: 0
  m_StaticBatchRoot: {fileID: 0}
  m_ProbeAnchor: {fileID: 0}
  m_LightProbeVolumeOverride: {fileID: 0}
  m_ScaleInLightmap: 1
  m_PreserveUVs: 0
  m_IgnoreNormalsForChartDetection: 0
  m_ImportantGI: 0
  m_StitchLightmapSeams: 0
  m_SelectedEditorRenderState: 3
  m_MinimumChartSize: 4
  m_AutoUVMaxDistance: 0.5
  m_AutoUVMaxAngle: 89
  m_LightmapParameters: {fileID: 0}
  m_SortingLayerID: 0
  m_SortingLayer: 0
  m_SortingOrder: 0
--- !u!33 &444453675
MeshFilter:
  m_ObjectHideFlags: 0
  m_CorrespondingSourceObject: {fileID: 33088080702655966, guid: 7fc4490f0a1b22a4e9d9ae177d4febe4,
    type: 2}
  m_PrefabInternal: {fileID: 1930699879}
  m_GameObject: {fileID: 444453672}
  m_Mesh: {fileID: 4300000, guid: 75e162e8ae54b1c4bafa4ca97a5ce023, type: 3}
--- !u!4 &444453676
Transform:
  m_ObjectHideFlags: 0
  m_CorrespondingSourceObject: {fileID: 4593418985181984, guid: 7fc4490f0a1b22a4e9d9ae177d4febe4,
    type: 2}
  m_PrefabInternal: {fileID: 1930699879}
  m_GameObject: {fileID: 444453672}
  m_LocalRotation: {x: 0, y: -0, z: -0, w: 1}
  m_LocalPosition: {x: -1.3404837, y: 1.28037864e-17, z: -27.38}
  m_LocalScale: {x: 1, y: 1, z: 1}
  m_Children: []
  m_Father: {fileID: 0}
  m_RootOrder: 8
  m_LocalEulerAnglesHint: {x: 0, y: 0, z: 0}
--- !u!1 &517556701
GameObject:
  m_ObjectHideFlags: 0
  m_CorrespondingSourceObject: {fileID: 1781462993706784, guid: 4445451d8240ced4caedf6b01591ff3d,
    type: 2}
  m_PrefabInternal: {fileID: 658430364}
  serializedVersion: 6
  m_Component:
  - component: {fileID: 517556705}
  - component: {fileID: 517556704}
  - component: {fileID: 517556703}
  - component: {fileID: 517556702}
  m_Layer: 0
  m_Name: Skyscraper2_1
  m_TagString: Untagged
  m_Icon: {fileID: 0}
  m_NavMeshLayer: 0
  m_StaticEditorFlags: 0
  m_IsActive: 1
--- !u!65 &517556702
BoxCollider:
  m_ObjectHideFlags: 0
  m_CorrespondingSourceObject: {fileID: 65468962982889438, guid: 4445451d8240ced4caedf6b01591ff3d,
    type: 2}
  m_PrefabInternal: {fileID: 658430364}
  m_GameObject: {fileID: 517556701}
  m_Material: {fileID: 0}
  m_IsTrigger: 0
  m_Enabled: 1
  serializedVersion: 2
  m_Size: {x: 7.06247, y: 25.882519, z: 6.852542}
  m_Center: {x: -0.0018310547, y: 12.929726, z: -0.00047397614}
--- !u!23 &517556703
MeshRenderer:
  m_ObjectHideFlags: 0
  m_CorrespondingSourceObject: {fileID: 23767224233293724, guid: 4445451d8240ced4caedf6b01591ff3d,
    type: 2}
  m_PrefabInternal: {fileID: 658430364}
  m_GameObject: {fileID: 517556701}
  m_Enabled: 1
  m_CastShadows: 1
  m_ReceiveShadows: 1
  m_DynamicOccludee: 1
  m_MotionVectors: 1
  m_LightProbeUsage: 1
  m_ReflectionProbeUsage: 1
  m_RenderingLayerMask: 4294967295
  m_Materials:
  - {fileID: 2100000, guid: 14a1a7d8e75042e49b9c79853b65f46d, type: 2}
  - {fileID: 2100000, guid: 14a1a7d8e75042e49b9c79853b65f46d, type: 2}
  - {fileID: 2100000, guid: 14a1a7d8e75042e49b9c79853b65f46d, type: 2}
  - {fileID: 2100000, guid: 14a1a7d8e75042e49b9c79853b65f46d, type: 2}
  - {fileID: 2100000, guid: 14a1a7d8e75042e49b9c79853b65f46d, type: 2}
  m_StaticBatchInfo:
    firstSubMesh: 0
    subMeshCount: 0
  m_StaticBatchRoot: {fileID: 0}
  m_ProbeAnchor: {fileID: 0}
  m_LightProbeVolumeOverride: {fileID: 0}
  m_ScaleInLightmap: 1
  m_PreserveUVs: 0
  m_IgnoreNormalsForChartDetection: 0
  m_ImportantGI: 0
  m_StitchLightmapSeams: 0
  m_SelectedEditorRenderState: 3
  m_MinimumChartSize: 4
  m_AutoUVMaxDistance: 0.5
  m_AutoUVMaxAngle: 89
  m_LightmapParameters: {fileID: 0}
  m_SortingLayerID: 0
  m_SortingLayer: 0
  m_SortingOrder: 0
--- !u!33 &517556704
MeshFilter:
  m_ObjectHideFlags: 0
  m_CorrespondingSourceObject: {fileID: 33826800588165790, guid: 4445451d8240ced4caedf6b01591ff3d,
    type: 2}
  m_PrefabInternal: {fileID: 658430364}
  m_GameObject: {fileID: 517556701}
  m_Mesh: {fileID: 4300000, guid: 27ebb3212fe564543ae545099a079cf1, type: 3}
--- !u!4 &517556705
Transform:
  m_ObjectHideFlags: 0
  m_CorrespondingSourceObject: {fileID: 4796967604442646, guid: 4445451d8240ced4caedf6b01591ff3d,
    type: 2}
  m_PrefabInternal: {fileID: 658430364}
  m_GameObject: {fileID: 517556701}
  m_LocalRotation: {x: 0, y: -0, z: -0, w: 1}
  m_LocalPosition: {x: 17.803577, y: -1.8024294e-17, z: 0.3000002}
  m_LocalScale: {x: 1, y: 1, z: 1}
  m_Children: []
  m_Father: {fileID: 0}
  m_RootOrder: 12
  m_LocalEulerAnglesHint: {x: 0, y: 0, z: 0}
--- !u!1001 &536089480
Prefab:
  m_ObjectHideFlags: 0
  serializedVersion: 2
  m_Modification:
    m_TransformParent: {fileID: 0}
    m_Modifications:
    - target: {fileID: 4025595117678400, guid: c707c19eb21282047913be387e956c9b, type: 2}
      propertyPath: m_LocalPosition.x
      value: -31.964785
      objectReference: {fileID: 0}
    - target: {fileID: 4025595117678400, guid: c707c19eb21282047913be387e956c9b, type: 2}
      propertyPath: m_LocalPosition.y
      value: 1.2246912e-17
      objectReference: {fileID: 0}
    - target: {fileID: 4025595117678400, guid: c707c19eb21282047913be387e956c9b, type: 2}
      propertyPath: m_LocalPosition.z
      value: -27.38
      objectReference: {fileID: 0}
    - target: {fileID: 4025595117678400, guid: c707c19eb21282047913be387e956c9b, type: 2}
      propertyPath: m_LocalRotation.x
      value: 0
      objectReference: {fileID: 0}
    - target: {fileID: 4025595117678400, guid: c707c19eb21282047913be387e956c9b, type: 2}
      propertyPath: m_LocalRotation.y
      value: -0
      objectReference: {fileID: 0}
    - target: {fileID: 4025595117678400, guid: c707c19eb21282047913be387e956c9b, type: 2}
      propertyPath: m_LocalRotation.z
      value: -0
      objectReference: {fileID: 0}
    - target: {fileID: 4025595117678400, guid: c707c19eb21282047913be387e956c9b, type: 2}
      propertyPath: m_LocalRotation.w
      value: 1
      objectReference: {fileID: 0}
    - target: {fileID: 4025595117678400, guid: c707c19eb21282047913be387e956c9b, type: 2}
      propertyPath: m_RootOrder
      value: 7
      objectReference: {fileID: 0}
    m_RemovedComponents: []
  m_SourcePrefab: {fileID: 100100000, guid: c707c19eb21282047913be387e956c9b, type: 2}
  m_RootGameObject: {fileID: 744062675}
  m_IsPrefabAsset: 0
--- !u!1 &569572360
GameObject:
  m_ObjectHideFlags: 0
  m_CorrespondingSourceObject: {fileID: 1603658306914404, guid: 306a85011bd56dc419ea7f095d02196e,
    type: 2}
  m_PrefabInternal: {fileID: 1730241960}
  serializedVersion: 6
  m_Component:
  - component: {fileID: 569572364}
  - component: {fileID: 569572363}
  - component: {fileID: 569572362}
  - component: {fileID: 569572361}
  m_Layer: 0
  m_Name: Skyscraper2_2
  m_TagString: Untagged
  m_Icon: {fileID: 0}
  m_NavMeshLayer: 0
  m_StaticEditorFlags: 0
  m_IsActive: 1
--- !u!65 &569572361
BoxCollider:
  m_ObjectHideFlags: 0
  m_CorrespondingSourceObject: {fileID: 65631824929558738, guid: 306a85011bd56dc419ea7f095d02196e,
    type: 2}
  m_PrefabInternal: {fileID: 1730241960}
  m_GameObject: {fileID: 569572360}
  m_Material: {fileID: 0}
  m_IsTrigger: 0
  m_Enabled: 1
  serializedVersion: 2
  m_Size: {x: 7.06247, y: 25.882519, z: 6.852542}
  m_Center: {x: -0.0018310547, y: 12.929726, z: -0.00047397614}
--- !u!23 &569572362
MeshRenderer:
  m_ObjectHideFlags: 0
  m_CorrespondingSourceObject: {fileID: 23452949218275920, guid: 306a85011bd56dc419ea7f095d02196e,
    type: 2}
  m_PrefabInternal: {fileID: 1730241960}
  m_GameObject: {fileID: 569572360}
  m_Enabled: 1
  m_CastShadows: 1
  m_ReceiveShadows: 1
  m_DynamicOccludee: 1
  m_MotionVectors: 1
  m_LightProbeUsage: 1
  m_ReflectionProbeUsage: 1
  m_RenderingLayerMask: 4294967295
  m_Materials:
  - {fileID: 2100000, guid: 14a1a7d8e75042e49b9c79853b65f46d, type: 2}
  - {fileID: 2100000, guid: 14a1a7d8e75042e49b9c79853b65f46d, type: 2}
  - {fileID: 2100000, guid: 14a1a7d8e75042e49b9c79853b65f46d, type: 2}
  - {fileID: 2100000, guid: 14a1a7d8e75042e49b9c79853b65f46d, type: 2}
  - {fileID: 2100000, guid: 14a1a7d8e75042e49b9c79853b65f46d, type: 2}
  m_StaticBatchInfo:
    firstSubMesh: 0
    subMeshCount: 0
  m_StaticBatchRoot: {fileID: 0}
  m_ProbeAnchor: {fileID: 0}
  m_LightProbeVolumeOverride: {fileID: 0}
  m_ScaleInLightmap: 1
  m_PreserveUVs: 0
  m_IgnoreNormalsForChartDetection: 0
  m_ImportantGI: 0
  m_StitchLightmapSeams: 0
  m_SelectedEditorRenderState: 3
  m_MinimumChartSize: 4
  m_AutoUVMaxDistance: 0.5
  m_AutoUVMaxAngle: 89
  m_LightmapParameters: {fileID: 0}
  m_SortingLayerID: 0
  m_SortingLayer: 0
  m_SortingOrder: 0
--- !u!33 &569572363
MeshFilter:
  m_ObjectHideFlags: 0
  m_CorrespondingSourceObject: {fileID: 33608415155066828, guid: 306a85011bd56dc419ea7f095d02196e,
    type: 2}
  m_PrefabInternal: {fileID: 1730241960}
  m_GameObject: {fileID: 569572360}
  m_Mesh: {fileID: 4300000, guid: f4206685b343583468ab415c7496e516, type: 3}
--- !u!4 &569572364
Transform:
  m_ObjectHideFlags: 0
  m_CorrespondingSourceObject: {fileID: 4743080313763172, guid: 306a85011bd56dc419ea7f095d02196e,
    type: 2}
  m_PrefabInternal: {fileID: 1730241960}
  m_GameObject: {fileID: 569572360}
  m_LocalRotation: {x: 0, y: -0, z: -0, w: 1}
  m_LocalPosition: {x: -3.2999992, y: -2.6581437e-17, z: 0.3}
  m_LocalScale: {x: 1, y: 1, z: 1}
  m_Children: []
  m_Father: {fileID: 0}
  m_RootOrder: 11
  m_LocalEulerAnglesHint: {x: 0, y: 0, z: 0}
--- !u!1001 &582482836
Prefab:
  m_ObjectHideFlags: 0
  serializedVersion: 2
  m_Modification:
    m_TransformParent: {fileID: 0}
    m_Modifications:
    - target: {fileID: 4314225014232680, guid: 63f379f76f2a6d74a835d596ec65a7b9, type: 2}
      propertyPath: m_LocalPosition.x
      value: 23.9
      objectReference: {fileID: 0}
    - target: {fileID: 4314225014232680, guid: 63f379f76f2a6d74a835d596ec65a7b9, type: 2}
      propertyPath: m_LocalPosition.y
      value: 1.1403512e-17
      objectReference: {fileID: 0}
    - target: {fileID: 4314225014232680, guid: 63f379f76f2a6d74a835d596ec65a7b9, type: 2}
      propertyPath: m_LocalPosition.z
      value: -27.38
      objectReference: {fileID: 0}
    - target: {fileID: 4314225014232680, guid: 63f379f76f2a6d74a835d596ec65a7b9, type: 2}
      propertyPath: m_LocalRotation.x
      value: 0
      objectReference: {fileID: 0}
    - target: {fileID: 4314225014232680, guid: 63f379f76f2a6d74a835d596ec65a7b9, type: 2}
      propertyPath: m_LocalRotation.y
      value: -0
      objectReference: {fileID: 0}
    - target: {fileID: 4314225014232680, guid: 63f379f76f2a6d74a835d596ec65a7b9, type: 2}
      propertyPath: m_LocalRotation.z
      value: -0
      objectReference: {fileID: 0}
    - target: {fileID: 4314225014232680, guid: 63f379f76f2a6d74a835d596ec65a7b9, type: 2}
      propertyPath: m_LocalRotation.w
      value: 1
      objectReference: {fileID: 0}
    - target: {fileID: 4314225014232680, guid: 63f379f76f2a6d74a835d596ec65a7b9, type: 2}
      propertyPath: m_RootOrder
      value: 9
      objectReference: {fileID: 0}
    m_RemovedComponents: []
  m_SourcePrefab: {fileID: 100100000, guid: 63f379f76f2a6d74a835d596ec65a7b9, type: 2}
  m_RootGameObject: {fileID: 1321135235}
  m_IsPrefabAsset: 0
--- !u!1001 &658430364
Prefab:
  m_ObjectHideFlags: 0
  serializedVersion: 2
  m_Modification:
    m_TransformParent: {fileID: 0}
    m_Modifications:
    - target: {fileID: 4796967604442646, guid: 4445451d8240ced4caedf6b01591ff3d, type: 2}
      propertyPath: m_LocalPosition.x
      value: 17.803577
      objectReference: {fileID: 0}
    - target: {fileID: 4796967604442646, guid: 4445451d8240ced4caedf6b01591ff3d, type: 2}
      propertyPath: m_LocalPosition.y
      value: -1.8024294e-17
      objectReference: {fileID: 0}
    - target: {fileID: 4796967604442646, guid: 4445451d8240ced4caedf6b01591ff3d, type: 2}
      propertyPath: m_LocalPosition.z
      value: 0.3000002
      objectReference: {fileID: 0}
    - target: {fileID: 4796967604442646, guid: 4445451d8240ced4caedf6b01591ff3d, type: 2}
      propertyPath: m_LocalRotation.x
      value: 0
      objectReference: {fileID: 0}
    - target: {fileID: 4796967604442646, guid: 4445451d8240ced4caedf6b01591ff3d, type: 2}
      propertyPath: m_LocalRotation.y
      value: -0
      objectReference: {fileID: 0}
    - target: {fileID: 4796967604442646, guid: 4445451d8240ced4caedf6b01591ff3d, type: 2}
      propertyPath: m_LocalRotation.z
      value: -0
      objectReference: {fileID: 0}
    - target: {fileID: 4796967604442646, guid: 4445451d8240ced4caedf6b01591ff3d, type: 2}
      propertyPath: m_LocalRotation.w
      value: 1
      objectReference: {fileID: 0}
    - target: {fileID: 4796967604442646, guid: 4445451d8240ced4caedf6b01591ff3d, type: 2}
      propertyPath: m_RootOrder
      value: 12
      objectReference: {fileID: 0}
    m_RemovedComponents: []
  m_SourcePrefab: {fileID: 100100000, guid: 4445451d8240ced4caedf6b01591ff3d, type: 2}
  m_RootGameObject: {fileID: 517556701}
  m_IsPrefabAsset: 0
--- !u!1 &733839321
GameObject:
  m_ObjectHideFlags: 0
  m_CorrespondingSourceObject: {fileID: 1180944738557144, guid: efba1b8a30c66c94ebf03f4c424b3d44,
    type: 2}
  m_PrefabInternal: {fileID: 1602921291}
  serializedVersion: 6
  m_Component:
  - component: {fileID: 733839325}
  - component: {fileID: 733839324}
  - component: {fileID: 733839323}
  - component: {fileID: 733839322}
  m_Layer: 0
  m_Name: Skyscraper4_3
  m_TagString: Untagged
  m_Icon: {fileID: 0}
  m_NavMeshLayer: 0
  m_StaticEditorFlags: 0
  m_IsActive: 1
--- !u!65 &733839322
BoxCollider:
  m_ObjectHideFlags: 0
  m_CorrespondingSourceObject: {fileID: 65423561705528880, guid: efba1b8a30c66c94ebf03f4c424b3d44,
    type: 2}
  m_PrefabInternal: {fileID: 1602921291}
  m_GameObject: {fileID: 733839321}
  m_Material: {fileID: 0}
  m_IsTrigger: 0
  m_Enabled: 1
  serializedVersion: 2
  m_Size: {x: 12.099079, y: 22.373001, z: 6.852542}
  m_Center: {x: 0.108487844, y: 11.174967, z: -0.00047397614}
--- !u!23 &733839323
MeshRenderer:
  m_ObjectHideFlags: 0
  m_CorrespondingSourceObject: {fileID: 23990659890236008, guid: efba1b8a30c66c94ebf03f4c424b3d44,
    type: 2}
  m_PrefabInternal: {fileID: 1602921291}
  m_GameObject: {fileID: 733839321}
  m_Enabled: 1
  m_CastShadows: 1
  m_ReceiveShadows: 1
  m_DynamicOccludee: 1
  m_MotionVectors: 1
  m_LightProbeUsage: 1
  m_ReflectionProbeUsage: 1
  m_RenderingLayerMask: 4294967295
  m_Materials:
  - {fileID: 2100000, guid: 14a1a7d8e75042e49b9c79853b65f46d, type: 2}
  - {fileID: 2100000, guid: 14a1a7d8e75042e49b9c79853b65f46d, type: 2}
  - {fileID: 2100000, guid: 14a1a7d8e75042e49b9c79853b65f46d, type: 2}
  - {fileID: 2100000, guid: 14a1a7d8e75042e49b9c79853b65f46d, type: 2}
  - {fileID: 2100000, guid: 14a1a7d8e75042e49b9c79853b65f46d, type: 2}
  m_StaticBatchInfo:
    firstSubMesh: 0
    subMeshCount: 0
  m_StaticBatchRoot: {fileID: 0}
  m_ProbeAnchor: {fileID: 0}
  m_LightProbeVolumeOverride: {fileID: 0}
  m_ScaleInLightmap: 1
  m_PreserveUVs: 0
  m_IgnoreNormalsForChartDetection: 0
  m_ImportantGI: 0
  m_StitchLightmapSeams: 0
  m_SelectedEditorRenderState: 3
  m_MinimumChartSize: 4
  m_AutoUVMaxDistance: 0.5
  m_AutoUVMaxAngle: 89
  m_LightmapParameters: {fileID: 0}
  m_SortingLayerID: 0
  m_SortingLayer: 0
  m_SortingOrder: 0
--- !u!33 &733839324
MeshFilter:
  m_ObjectHideFlags: 0
  m_CorrespondingSourceObject: {fileID: 33806710966162404, guid: efba1b8a30c66c94ebf03f4c424b3d44,
    type: 2}
  m_PrefabInternal: {fileID: 1602921291}
  m_GameObject: {fileID: 733839321}
  m_Mesh: {fileID: 4300000, guid: 3236eeed4023caa4c91493b14fd12b26, type: 3}
--- !u!4 &733839325
Transform:
  m_ObjectHideFlags: 0
  m_CorrespondingSourceObject: {fileID: 4885099933773506, guid: efba1b8a30c66c94ebf03f4c424b3d44,
    type: 2}
  m_PrefabInternal: {fileID: 1602921291}
  m_GameObject: {fileID: 733839321}
  m_LocalRotation: {x: 0, y: -0, z: -0, w: 1}
  m_LocalPosition: {x: -31.284157, y: 2.4300111e-17, z: -53}
  m_LocalScale: {x: 1, y: 1, z: 1}
  m_Children: []
  m_Father: {fileID: 0}
  m_RootOrder: 4
  m_LocalEulerAnglesHint: {x: 0, y: 0, z: 0}
--- !u!1 &744062675
GameObject:
  m_ObjectHideFlags: 0
  m_CorrespondingSourceObject: {fileID: 1666542775522434, guid: c707c19eb21282047913be387e956c9b,
    type: 2}
  m_PrefabInternal: {fileID: 536089480}
  serializedVersion: 6
  m_Component:
  - component: {fileID: 744062679}
  - component: {fileID: 744062678}
  - component: {fileID: 744062677}
  - component: {fileID: 744062676}
  m_Layer: 0
  m_Name: Skyscraper3_3
  m_TagString: Untagged
  m_Icon: {fileID: 0}
  m_NavMeshLayer: 0
  m_StaticEditorFlags: 0
  m_IsActive: 1
--- !u!65 &744062676
BoxCollider:
  m_ObjectHideFlags: 0
  m_CorrespondingSourceObject: {fileID: 65804250117939036, guid: c707c19eb21282047913be387e956c9b,
    type: 2}
  m_PrefabInternal: {fileID: 536089480}
  m_GameObject: {fileID: 744062675}
  m_Material: {fileID: 0}
  m_IsTrigger: 0
  m_Enabled: 1
  serializedVersion: 2
  m_Size: {x: 7.0624695, y: 26.13292, z: 6.852542}
  m_Center: {x: 0.002960205, y: 13.054926, z: -0.00047397614}
--- !u!23 &744062677
MeshRenderer:
  m_ObjectHideFlags: 0
  m_CorrespondingSourceObject: {fileID: 23945456775720854, guid: c707c19eb21282047913be387e956c9b,
    type: 2}
  m_PrefabInternal: {fileID: 536089480}
  m_GameObject: {fileID: 744062675}
  m_Enabled: 1
  m_CastShadows: 1
  m_ReceiveShadows: 1
  m_DynamicOccludee: 1
  m_MotionVectors: 1
  m_LightProbeUsage: 1
  m_ReflectionProbeUsage: 1
  m_RenderingLayerMask: 4294967295
  m_Materials:
  - {fileID: 2100000, guid: 14a1a7d8e75042e49b9c79853b65f46d, type: 2}
  - {fileID: 2100000, guid: 14a1a7d8e75042e49b9c79853b65f46d, type: 2}
  - {fileID: 2100000, guid: 14a1a7d8e75042e49b9c79853b65f46d, type: 2}
  - {fileID: 2100000, guid: 14a1a7d8e75042e49b9c79853b65f46d, type: 2}
  - {fileID: 2100000, guid: 14a1a7d8e75042e49b9c79853b65f46d, type: 2}
  m_StaticBatchInfo:
    firstSubMesh: 0
    subMeshCount: 0
  m_StaticBatchRoot: {fileID: 0}
  m_ProbeAnchor: {fileID: 0}
  m_LightProbeVolumeOverride: {fileID: 0}
  m_ScaleInLightmap: 1
  m_PreserveUVs: 0
  m_IgnoreNormalsForChartDetection: 0
  m_ImportantGI: 0
  m_StitchLightmapSeams: 0
  m_SelectedEditorRenderState: 3
  m_MinimumChartSize: 4
  m_AutoUVMaxDistance: 0.5
  m_AutoUVMaxAngle: 89
  m_LightmapParameters: {fileID: 0}
  m_SortingLayerID: 0
  m_SortingLayer: 0
  m_SortingOrder: 0
--- !u!33 &744062678
MeshFilter:
  m_ObjectHideFlags: 0
  m_CorrespondingSourceObject: {fileID: 33740073044141376, guid: c707c19eb21282047913be387e956c9b,
    type: 2}
  m_PrefabInternal: {fileID: 536089480}
  m_GameObject: {fileID: 744062675}
  m_Mesh: {fileID: 4300000, guid: 3695d434635c60340bc367cc03aac838, type: 3}
--- !u!4 &744062679
Transform:
  m_ObjectHideFlags: 0
  m_CorrespondingSourceObject: {fileID: 4025595117678400, guid: c707c19eb21282047913be387e956c9b,
    type: 2}
  m_PrefabInternal: {fileID: 536089480}
  m_GameObject: {fileID: 744062675}
  m_LocalRotation: {x: 0, y: -0, z: -0, w: 1}
  m_LocalPosition: {x: -31.964785, y: 1.2246912e-17, z: -27.38}
  m_LocalScale: {x: 1, y: 1, z: 1}
  m_Children: []
  m_Father: {fileID: 0}
  m_RootOrder: 7
  m_LocalEulerAnglesHint: {x: 0, y: 0, z: 0}
--- !u!1 &790749684
GameObject:
  m_ObjectHideFlags: 0
  m_CorrespondingSourceObject: {fileID: 0}
  m_PrefabInternal: {fileID: 0}
  serializedVersion: 6
  m_Component:
  - component: {fileID: 790749686}
  - component: {fileID: 790749685}
  m_Layer: 0
  m_Name: Sun
  m_TagString: Untagged
  m_Icon: {fileID: 0}
  m_NavMeshLayer: 0
  m_StaticEditorFlags: 0
  m_IsActive: 1
--- !u!108 &790749685
Light:
  m_ObjectHideFlags: 0
  m_CorrespondingSourceObject: {fileID: 0}
  m_PrefabInternal: {fileID: 0}
  m_GameObject: {fileID: 790749684}
  m_Enabled: 1
  serializedVersion: 8
  m_Type: 1
  m_Color: {r: 1, g: 0.95686275, b: 0.8392157, a: 1}
  m_Intensity: 1
  m_Range: 10
  m_SpotAngle: 30
  m_CookieSize: 10
  m_Shadows:
    m_Type: 2
    m_Resolution: 3
    m_CustomResolution: -1
    m_Strength: 1
    m_Bias: 0.2
    m_NormalBias: 0
    m_NearPlane: 0.1
  m_Cookie: {fileID: 0}
  m_DrawHalo: 0
  m_Flare: {fileID: 0}
  m_RenderMode: 0
  m_CullingMask:
    serializedVersion: 2
    m_Bits: 4294967295
  m_Lightmapping: 4
  m_LightShadowCasterMode: 0
  m_AreaSize: {x: 1, y: 1}
  m_BounceIntensity: 1
  m_ColorTemperature: 6570
  m_UseColorTemperature: 0
  m_ShadowRadius: 0
  m_ShadowAngle: 0
--- !u!4 &790749686
Transform:
  m_ObjectHideFlags: 0
  m_CorrespondingSourceObject: {fileID: 0}
  m_PrefabInternal: {fileID: 0}
  m_GameObject: {fileID: 790749684}
  m_LocalRotation: {x: 0.8516508, y: -0.14454393, z: 0.30997548, w: 0.39713123}
  m_LocalPosition: {x: -35.2, y: 30, z: 8.3}
  m_LocalScale: {x: 1, y: 1, z: 1}
  m_Children: []
  m_Father: {fileID: 0}
  m_RootOrder: 16
  m_LocalEulerAnglesHint: {x: 130, y: -40, z: 0}
--- !u!1 &897667772
GameObject:
  m_ObjectHideFlags: 0
  m_CorrespondingSourceObject: {fileID: 1327541076914388, guid: f732fda027cda2a47ab832d94c394cd9,
    type: 2}
  m_PrefabInternal: {fileID: 1994839844}
  serializedVersion: 6
  m_Component:
  - component: {fileID: 897667776}
  - component: {fileID: 897667775}
  - component: {fileID: 897667774}
  - component: {fileID: 897667773}
  m_Layer: 0
  m_Name: Skyscraper1_1
  m_TagString: Untagged
  m_Icon: {fileID: 0}
  m_NavMeshLayer: 0
  m_StaticEditorFlags: 0
  m_IsActive: 1
--- !u!65 &897667773
BoxCollider:
  m_ObjectHideFlags: 0
  m_CorrespondingSourceObject: {fileID: 65293963733493236, guid: f732fda027cda2a47ab832d94c394cd9,
    type: 2}
  m_PrefabInternal: {fileID: 1994839844}
  m_GameObject: {fileID: 897667772}
  m_Material: {fileID: 0}
  m_IsTrigger: 0
  m_Enabled: 1
  serializedVersion: 2
  m_Size: {x: 11.1692, y: 20.673855, z: 7.4281683}
  m_Center: {x: 0.00062799454, y: 10.325394, z: 0.34283864}
--- !u!23 &897667774
MeshRenderer:
  m_ObjectHideFlags: 0
  m_CorrespondingSourceObject: {fileID: 23605438296327038, guid: f732fda027cda2a47ab832d94c394cd9,
    type: 2}
  m_PrefabInternal: {fileID: 1994839844}
  m_GameObject: {fileID: 897667772}
  m_Enabled: 1
  m_CastShadows: 1
  m_ReceiveShadows: 1
  m_DynamicOccludee: 1
  m_MotionVectors: 1
  m_LightProbeUsage: 1
  m_ReflectionProbeUsage: 1
  m_RenderingLayerMask: 4294967295
  m_Materials:
  - {fileID: 2100000, guid: 14a1a7d8e75042e49b9c79853b65f46d, type: 2}
  - {fileID: 2100000, guid: 14a1a7d8e75042e49b9c79853b65f46d, type: 2}
  - {fileID: 2100000, guid: 14a1a7d8e75042e49b9c79853b65f46d, type: 2}
  - {fileID: 2100000, guid: 14a1a7d8e75042e49b9c79853b65f46d, type: 2}
  - {fileID: 2100000, guid: 14a1a7d8e75042e49b9c79853b65f46d, type: 2}
  m_StaticBatchInfo:
    firstSubMesh: 0
    subMeshCount: 0
  m_StaticBatchRoot: {fileID: 0}
  m_ProbeAnchor: {fileID: 0}
  m_LightProbeVolumeOverride: {fileID: 0}
  m_ScaleInLightmap: 1
  m_PreserveUVs: 0
  m_IgnoreNormalsForChartDetection: 0
  m_ImportantGI: 0
  m_StitchLightmapSeams: 0
  m_SelectedEditorRenderState: 3
  m_MinimumChartSize: 4
  m_AutoUVMaxDistance: 0.5
  m_AutoUVMaxAngle: 89
  m_LightmapParameters: {fileID: 0}
  m_SortingLayerID: 0
  m_SortingLayer: 0
  m_SortingOrder: 0
--- !u!33 &897667775
MeshFilter:
  m_ObjectHideFlags: 0
  m_CorrespondingSourceObject: {fileID: 33505492894546434, guid: f732fda027cda2a47ab832d94c394cd9,
    type: 2}
  m_PrefabInternal: {fileID: 1994839844}
  m_GameObject: {fileID: 897667772}
  m_Mesh: {fileID: 4300000, guid: 1abef2616d0dd2144bac977d29d4bd05, type: 3}
--- !u!4 &897667776
Transform:
  m_ObjectHideFlags: 0
  m_CorrespondingSourceObject: {fileID: 4042084934314430, guid: f732fda027cda2a47ab832d94c394cd9,
    type: 2}
  m_PrefabInternal: {fileID: 1994839844}
  m_GameObject: {fileID: 897667772}
  m_LocalRotation: {x: 0, y: 0, z: 0, w: 1}
  m_LocalPosition: {x: 23.5, y: 4.182484e-18, z: 30}
  m_LocalScale: {x: 1, y: 1, z: 1}
  m_Children: []
  m_Father: {fileID: 0}
  m_RootOrder: 15
  m_LocalEulerAnglesHint: {x: 0, y: 0, z: 0}
--- !u!1 &935129025
GameObject:
  m_ObjectHideFlags: 0
  m_CorrespondingSourceObject: {fileID: 0}
  m_PrefabInternal: {fileID: 0}
  serializedVersion: 6
  m_Component:
  - component: {fileID: 935129029}
  - component: {fileID: 935129028}
  - component: {fileID: 935129027}
  - component: {fileID: 935129026}
  m_Layer: 0
  m_Name: Plane
  m_TagString: Untagged
  m_Icon: {fileID: 0}
  m_NavMeshLayer: 0
  m_StaticEditorFlags: 0
  m_IsActive: 1
--- !u!23 &935129026
MeshRenderer:
  m_ObjectHideFlags: 0
  m_CorrespondingSourceObject: {fileID: 0}
  m_PrefabInternal: {fileID: 0}
  m_GameObject: {fileID: 935129025}
  m_Enabled: 1
  m_CastShadows: 1
  m_ReceiveShadows: 1
  m_DynamicOccludee: 1
  m_MotionVectors: 1
  m_LightProbeUsage: 1
  m_ReflectionProbeUsage: 1
  m_RenderingLayerMask: 4294967295
  m_Materials:
  - {fileID: 2100000, guid: fe30dc63660ba5143929f5e42e63432c, type: 2}
  m_StaticBatchInfo:
    firstSubMesh: 0
    subMeshCount: 0
  m_StaticBatchRoot: {fileID: 0}
  m_ProbeAnchor: {fileID: 0}
  m_LightProbeVolumeOverride: {fileID: 0}
  m_ScaleInLightmap: 1
  m_PreserveUVs: 1
  m_IgnoreNormalsForChartDetection: 0
  m_ImportantGI: 0
  m_StitchLightmapSeams: 0
  m_SelectedEditorRenderState: 3
  m_MinimumChartSize: 4
  m_AutoUVMaxDistance: 0.5
  m_AutoUVMaxAngle: 89
  m_LightmapParameters: {fileID: 0}
  m_SortingLayerID: 0
  m_SortingLayer: 0
  m_SortingOrder: 0
--- !u!64 &935129027
MeshCollider:
  m_ObjectHideFlags: 0
  m_CorrespondingSourceObject: {fileID: 0}
  m_PrefabInternal: {fileID: 0}
  m_GameObject: {fileID: 935129025}
  m_Material: {fileID: 0}
  m_IsTrigger: 0
  m_Enabled: 1
  serializedVersion: 3
  m_Convex: 0
  m_CookingOptions: 14
  m_SkinWidth: 0.01
  m_Mesh: {fileID: 10209, guid: 0000000000000000e000000000000000, type: 0}
--- !u!33 &935129028
MeshFilter:
  m_ObjectHideFlags: 0
  m_CorrespondingSourceObject: {fileID: 0}
  m_PrefabInternal: {fileID: 0}
  m_GameObject: {fileID: 935129025}
  m_Mesh: {fileID: 10209, guid: 0000000000000000e000000000000000, type: 0}
--- !u!4 &935129029
Transform:
  m_ObjectHideFlags: 0
  m_CorrespondingSourceObject: {fileID: 0}
  m_PrefabInternal: {fileID: 0}
  m_GameObject: {fileID: 935129025}
  m_LocalRotation: {x: 0, y: 0, z: 0, w: 1}
  m_LocalPosition: {x: 0, y: 0, z: 0}
  m_LocalScale: {x: 100, y: 1, z: 100}
  m_Children: []
  m_Father: {fileID: 0}
  m_RootOrder: 17
  m_LocalEulerAnglesHint: {x: 0, y: 0, z: 0}
--- !u!1 &956664192
GameObject:
  m_ObjectHideFlags: 0
  m_CorrespondingSourceObject: {fileID: 1033176948175306, guid: fda779f8c0dc521469d570ab30fb1b61,
    type: 2}
  m_PrefabInternal: {fileID: 985615547}
  serializedVersion: 6
  m_Component:
  - component: {fileID: 956664196}
  - component: {fileID: 956664195}
  - component: {fileID: 956664194}
  - component: {fileID: 956664193}
  m_Layer: 0
  m_Name: Skyscraper1_3
  m_TagString: Untagged
  m_Icon: {fileID: 0}
  m_NavMeshLayer: 0
  m_StaticEditorFlags: 0
  m_IsActive: 1
--- !u!65 &956664193
BoxCollider:
  m_ObjectHideFlags: 0
  m_CorrespondingSourceObject: {fileID: 65327520950092218, guid: fda779f8c0dc521469d570ab30fb1b61,
    type: 2}
  m_PrefabInternal: {fileID: 985615547}
  m_GameObject: {fileID: 956664192}
  m_Material: {fileID: 0}
  m_IsTrigger: 0
  m_Enabled: 1
  serializedVersion: 2
  m_Size: {x: 11.1692, y: 20.673855, z: 7.4281683}
  m_Center: {x: 0.00062799454, y: 10.325394, z: 0.34283864}
--- !u!23 &956664194
MeshRenderer:
  m_ObjectHideFlags: 0
  m_CorrespondingSourceObject: {fileID: 23131380344358394, guid: fda779f8c0dc521469d570ab30fb1b61,
    type: 2}
  m_PrefabInternal: {fileID: 985615547}
  m_GameObject: {fileID: 956664192}
  m_Enabled: 1
  m_CastShadows: 1
  m_ReceiveShadows: 1
  m_DynamicOccludee: 1
  m_MotionVectors: 1
  m_LightProbeUsage: 1
  m_ReflectionProbeUsage: 1
  m_RenderingLayerMask: 4294967295
  m_Materials:
  - {fileID: 2100000, guid: 14a1a7d8e75042e49b9c79853b65f46d, type: 2}
  - {fileID: 2100000, guid: 14a1a7d8e75042e49b9c79853b65f46d, type: 2}
  - {fileID: 2100000, guid: 14a1a7d8e75042e49b9c79853b65f46d, type: 2}
  - {fileID: 2100000, guid: 14a1a7d8e75042e49b9c79853b65f46d, type: 2}
  - {fileID: 2100000, guid: 14a1a7d8e75042e49b9c79853b65f46d, type: 2}
  m_StaticBatchInfo:
    firstSubMesh: 0
    subMeshCount: 0
  m_StaticBatchRoot: {fileID: 0}
  m_ProbeAnchor: {fileID: 0}
  m_LightProbeVolumeOverride: {fileID: 0}
  m_ScaleInLightmap: 1
  m_PreserveUVs: 0
  m_IgnoreNormalsForChartDetection: 0
  m_ImportantGI: 0
  m_StitchLightmapSeams: 0
  m_SelectedEditorRenderState: 3
  m_MinimumChartSize: 4
  m_AutoUVMaxDistance: 0.5
  m_AutoUVMaxAngle: 89
  m_LightmapParameters: {fileID: 0}
  m_SortingLayerID: 0
  m_SortingLayer: 0
  m_SortingOrder: 0
--- !u!33 &956664195
MeshFilter:
  m_ObjectHideFlags: 0
  m_CorrespondingSourceObject: {fileID: 33917988725687850, guid: fda779f8c0dc521469d570ab30fb1b61,
    type: 2}
  m_PrefabInternal: {fileID: 985615547}
  m_GameObject: {fileID: 956664192}
  m_Mesh: {fileID: 4300000, guid: 1d91cf03cc90de341813bad15e828733, type: 3}
--- !u!4 &956664196
Transform:
  m_ObjectHideFlags: 0
  m_CorrespondingSourceObject: {fileID: 4101661957607092, guid: fda779f8c0dc521469d570ab30fb1b61,
    type: 2}
  m_PrefabInternal: {fileID: 985615547}
  m_GameObject: {fileID: 956664192}
  m_LocalRotation: {x: 0, y: -0, z: -0, w: 1}
  m_LocalPosition: {x: -29.899998, y: -4.920723e-18, z: 30}
  m_LocalScale: {x: 1, y: 1, z: 1}
  m_Children: []
  m_Father: {fileID: 0}
  m_RootOrder: 13
  m_LocalEulerAnglesHint: {x: 0, y: 0, z: 0}
--- !u!1001 &985615547
Prefab:
  m_ObjectHideFlags: 0
  serializedVersion: 2
  m_Modification:
    m_TransformParent: {fileID: 0}
    m_Modifications:
    - target: {fileID: 4101661957607092, guid: fda779f8c0dc521469d570ab30fb1b61, type: 2}
      propertyPath: m_LocalPosition.x
      value: -29.899998
      objectReference: {fileID: 0}
    - target: {fileID: 4101661957607092, guid: fda779f8c0dc521469d570ab30fb1b61, type: 2}
      propertyPath: m_LocalPosition.y
      value: -4.920723e-18
      objectReference: {fileID: 0}
    - target: {fileID: 4101661957607092, guid: fda779f8c0dc521469d570ab30fb1b61, type: 2}
      propertyPath: m_LocalPosition.z
      value: 30
      objectReference: {fileID: 0}
    - target: {fileID: 4101661957607092, guid: fda779f8c0dc521469d570ab30fb1b61, type: 2}
      propertyPath: m_LocalRotation.x
      value: 0
      objectReference: {fileID: 0}
    - target: {fileID: 4101661957607092, guid: fda779f8c0dc521469d570ab30fb1b61, type: 2}
      propertyPath: m_LocalRotation.y
      value: -0
      objectReference: {fileID: 0}
    - target: {fileID: 4101661957607092, guid: fda779f8c0dc521469d570ab30fb1b61, type: 2}
      propertyPath: m_LocalRotation.z
      value: -0
      objectReference: {fileID: 0}
    - target: {fileID: 4101661957607092, guid: fda779f8c0dc521469d570ab30fb1b61, type: 2}
      propertyPath: m_LocalRotation.w
      value: 1
      objectReference: {fileID: 0}
    - target: {fileID: 4101661957607092, guid: fda779f8c0dc521469d570ab30fb1b61, type: 2}
      propertyPath: m_RootOrder
      value: 13
      objectReference: {fileID: 0}
    m_RemovedComponents: []
  m_SourcePrefab: {fileID: 100100000, guid: fda779f8c0dc521469d570ab30fb1b61, type: 2}
  m_RootGameObject: {fileID: 956664192}
  m_IsPrefabAsset: 0
--- !u!1001 &1036254984
Prefab:
  m_ObjectHideFlags: 0
  serializedVersion: 2
  m_Modification:
    m_TransformParent: {fileID: 0}
    m_Modifications:
    - target: {fileID: 4909869075625906, guid: b5469b0116bfd4b438e367b2717acdde, type: 2}
      propertyPath: m_LocalPosition.x
      value: -61.18
      objectReference: {fileID: 0}
    - target: {fileID: 4909869075625906, guid: b5469b0116bfd4b438e367b2717acdde, type: 2}
      propertyPath: m_LocalPosition.y
      value: 8.553969e-18
      objectReference: {fileID: 0}
    - target: {fileID: 4909869075625906, guid: b5469b0116bfd4b438e367b2717acdde, type: 2}
      propertyPath: m_LocalPosition.z
      value: -14.751047
      objectReference: {fileID: 0}
    - target: {fileID: 4909869075625906, guid: b5469b0116bfd4b438e367b2717acdde, type: 2}
      propertyPath: m_LocalRotation.x
      value: 0
      objectReference: {fileID: 0}
    - target: {fileID: 4909869075625906, guid: b5469b0116bfd4b438e367b2717acdde, type: 2}
      propertyPath: m_LocalRotation.y
      value: -0
      objectReference: {fileID: 0}
    - target: {fileID: 4909869075625906, guid: b5469b0116bfd4b438e367b2717acdde, type: 2}
      propertyPath: m_LocalRotation.z
      value: -0
      objectReference: {fileID: 0}
    - target: {fileID: 4909869075625906, guid: b5469b0116bfd4b438e367b2717acdde, type: 2}
      propertyPath: m_LocalRotation.w
      value: 1
      objectReference: {fileID: 0}
    - target: {fileID: 4909869075625906, guid: b5469b0116bfd4b438e367b2717acdde, type: 2}
      propertyPath: m_RootOrder
      value: 2
      objectReference: {fileID: 0}
    m_RemovedComponents: []
  m_SourcePrefab: {fileID: 100100000, guid: b5469b0116bfd4b438e367b2717acdde, type: 2}
  m_RootGameObject: {fileID: 1537578181}
  m_IsPrefabAsset: 0
--- !u!1001 &1276230364
Prefab:
  m_ObjectHideFlags: 0
  serializedVersion: 2
  m_Modification:
    m_TransformParent: {fileID: 0}
    m_Modifications:
    - target: {fileID: 4993226966828476, guid: 30c0eb0ecd8987946bd176a2e155b866, type: 2}
      propertyPath: m_LocalPosition.x
      value: -61.18
      objectReference: {fileID: 0}
    - target: {fileID: 4993226966828476, guid: 30c0eb0ecd8987946bd176a2e155b866, type: 2}
      propertyPath: m_LocalPosition.y
      value: 2.4118833e-17
      objectReference: {fileID: 0}
    - target: {fileID: 4993226966828476, guid: 30c0eb0ecd8987946bd176a2e155b866, type: 2}
      propertyPath: m_LocalPosition.z
      value: -49.8
      objectReference: {fileID: 0}
    - target: {fileID: 4993226966828476, guid: 30c0eb0ecd8987946bd176a2e155b866, type: 2}
      propertyPath: m_LocalRotation.x
      value: 0
      objectReference: {fileID: 0}
    - target: {fileID: 4993226966828476, guid: 30c0eb0ecd8987946bd176a2e155b866, type: 2}
      propertyPath: m_LocalRotation.y
      value: -0
      objectReference: {fileID: 0}
    - target: {fileID: 4993226966828476, guid: 30c0eb0ecd8987946bd176a2e155b866, type: 2}
      propertyPath: m_LocalRotation.z
      value: -0
      objectReference: {fileID: 0}
    - target: {fileID: 4993226966828476, guid: 30c0eb0ecd8987946bd176a2e155b866, type: 2}
      propertyPath: m_LocalRotation.w
      value: 1
      objectReference: {fileID: 0}
    - target: {fileID: 4993226966828476, guid: 30c0eb0ecd8987946bd176a2e155b866, type: 2}
      propertyPath: m_RootOrder
      value: 1
      objectReference: {fileID: 0}
    m_RemovedComponents: []
  m_SourcePrefab: {fileID: 100100000, guid: 30c0eb0ecd8987946bd176a2e155b866, type: 2}
  m_RootGameObject: {fileID: 1814238605}
  m_IsPrefabAsset: 0
--- !u!1 &1291137947
GameObject:
  m_ObjectHideFlags: 0
  m_CorrespondingSourceObject: {fileID: 1543807742839750, guid: 5e0a463f8e283854cb0c338ec7b3af7b,
    type: 2}
  m_PrefabInternal: {fileID: 1616745313}
  serializedVersion: 6
  m_Component:
  - component: {fileID: 1291137951}
  - component: {fileID: 1291137950}
  - component: {fileID: 1291137949}
  - component: {fileID: 1291137948}
  m_Layer: 0
  m_Name: Skyscraper5_1
  m_TagString: Untagged
  m_Icon: {fileID: 0}
  m_NavMeshLayer: 0
  m_StaticEditorFlags: 0
  m_IsActive: 1
--- !u!64 &1291137948
MeshCollider:
  m_ObjectHideFlags: 0
  m_CorrespondingSourceObject: {fileID: 64780925418703488, guid: 5e0a463f8e283854cb0c338ec7b3af7b,
    type: 2}
  m_PrefabInternal: {fileID: 1616745313}
  m_GameObject: {fileID: 1291137947}
  m_Material: {fileID: 0}
  m_IsTrigger: 0
  m_Enabled: 1
  serializedVersion: 3
  m_Convex: 1
  m_CookingOptions: 14
  m_SkinWidth: 0.01
  m_Mesh: {fileID: 4300000, guid: 1e90a2e40ca598d49aebab6f97cf8bf9, type: 3}
--- !u!23 &1291137949
MeshRenderer:
  m_ObjectHideFlags: 0
  m_CorrespondingSourceObject: {fileID: 23150548617280746, guid: 5e0a463f8e283854cb0c338ec7b3af7b,
    type: 2}
  m_PrefabInternal: {fileID: 1616745313}
  m_GameObject: {fileID: 1291137947}
  m_Enabled: 1
  m_CastShadows: 1
  m_ReceiveShadows: 1
  m_DynamicOccludee: 1
  m_MotionVectors: 1
  m_LightProbeUsage: 1
  m_ReflectionProbeUsage: 1
  m_RenderingLayerMask: 4294967295
  m_Materials:
  - {fileID: 2100000, guid: 14a1a7d8e75042e49b9c79853b65f46d, type: 2}
  - {fileID: 2100000, guid: 14a1a7d8e75042e49b9c79853b65f46d, type: 2}
  - {fileID: 2100000, guid: 14a1a7d8e75042e49b9c79853b65f46d, type: 2}
  - {fileID: 2100000, guid: 14a1a7d8e75042e49b9c79853b65f46d, type: 2}
  - {fileID: 2100000, guid: 14a1a7d8e75042e49b9c79853b65f46d, type: 2}
  - {fileID: 2100000, guid: 14a1a7d8e75042e49b9c79853b65f46d, type: 2}
  m_StaticBatchInfo:
    firstSubMesh: 0
    subMeshCount: 0
  m_StaticBatchRoot: {fileID: 0}
  m_ProbeAnchor: {fileID: 0}
  m_LightProbeVolumeOverride: {fileID: 0}
  m_ScaleInLightmap: 1
  m_PreserveUVs: 0
  m_IgnoreNormalsForChartDetection: 0
  m_ImportantGI: 0
  m_StitchLightmapSeams: 0
  m_SelectedEditorRenderState: 3
  m_MinimumChartSize: 4
  m_AutoUVMaxDistance: 0.5
  m_AutoUVMaxAngle: 89
  m_LightmapParameters: {fileID: 0}
  m_SortingLayerID: 0
  m_SortingLayer: 0
  m_SortingOrder: 0
--- !u!33 &1291137950
MeshFilter:
  m_ObjectHideFlags: 0
  m_CorrespondingSourceObject: {fileID: 33373141607492802, guid: 5e0a463f8e283854cb0c338ec7b3af7b,
    type: 2}
  m_PrefabInternal: {fileID: 1616745313}
  m_GameObject: {fileID: 1291137947}
  m_Mesh: {fileID: 4300000, guid: 1e90a2e40ca598d49aebab6f97cf8bf9, type: 3}
--- !u!4 &1291137951
Transform:
  m_ObjectHideFlags: 0
  m_CorrespondingSourceObject: {fileID: 4429051634172402, guid: 5e0a463f8e283854cb0c338ec7b3af7b,
    type: 2}
  m_PrefabInternal: {fileID: 1616745313}
  m_GameObject: {fileID: 1291137947}
  m_LocalRotation: {x: 0, y: -0, z: -0, w: 1}
  m_LocalPosition: {x: -61.18, y: 1.2906003e-17, z: 20.61078}
  m_LocalScale: {x: 1, y: 1, z: 1}
  m_Children: []
  m_Father: {fileID: 0}
  m_RootOrder: 3
  m_LocalEulerAnglesHint: {x: 0, y: 0, z: 0}
--- !u!1 &1321135235
GameObject:
  m_ObjectHideFlags: 0
  m_CorrespondingSourceObject: {fileID: 1238817734611092, guid: 63f379f76f2a6d74a835d596ec65a7b9,
    type: 2}
  m_PrefabInternal: {fileID: 582482836}
  serializedVersion: 6
  m_Component:
  - component: {fileID: 1321135239}
  - component: {fileID: 1321135238}
  - component: {fileID: 1321135237}
  - component: {fileID: 1321135236}
  m_Layer: 0
  m_Name: Skyscraper3_1
  m_TagString: Untagged
  m_Icon: {fileID: 0}
  m_NavMeshLayer: 0
  m_StaticEditorFlags: 0
  m_IsActive: 1
--- !u!65 &1321135236
BoxCollider:
  m_ObjectHideFlags: 0
  m_CorrespondingSourceObject: {fileID: 65530015578850766, guid: 63f379f76f2a6d74a835d596ec65a7b9,
    type: 2}
  m_PrefabInternal: {fileID: 582482836}
  m_GameObject: {fileID: 1321135235}
  m_Material: {fileID: 0}
  m_IsTrigger: 0
  m_Enabled: 1
  serializedVersion: 2
  m_Size: {x: 7.0624695, y: 26.13292, z: 6.852542}
  m_Center: {x: 0.002960205, y: 13.054926, z: -0.00047397614}
--- !u!23 &1321135237
MeshRenderer:
  m_ObjectHideFlags: 0
  m_CorrespondingSourceObject: {fileID: 23751873816312496, guid: 63f379f76f2a6d74a835d596ec65a7b9,
    type: 2}
  m_PrefabInternal: {fileID: 582482836}
  m_GameObject: {fileID: 1321135235}
  m_Enabled: 1
  m_CastShadows: 1
  m_ReceiveShadows: 1
  m_DynamicOccludee: 1
  m_MotionVectors: 1
  m_LightProbeUsage: 1
  m_ReflectionProbeUsage: 1
  m_RenderingLayerMask: 4294967295
  m_Materials:
  - {fileID: 2100000, guid: 14a1a7d8e75042e49b9c79853b65f46d, type: 2}
  - {fileID: 2100000, guid: 14a1a7d8e75042e49b9c79853b65f46d, type: 2}
  - {fileID: 2100000, guid: 14a1a7d8e75042e49b9c79853b65f46d, type: 2}
  - {fileID: 2100000, guid: 14a1a7d8e75042e49b9c79853b65f46d, type: 2}
  - {fileID: 2100000, guid: 14a1a7d8e75042e49b9c79853b65f46d, type: 2}
  m_StaticBatchInfo:
    firstSubMesh: 0
    subMeshCount: 0
  m_StaticBatchRoot: {fileID: 0}
  m_ProbeAnchor: {fileID: 0}
  m_LightProbeVolumeOverride: {fileID: 0}
  m_ScaleInLightmap: 1
  m_PreserveUVs: 0
  m_IgnoreNormalsForChartDetection: 0
  m_ImportantGI: 0
  m_StitchLightmapSeams: 0
  m_SelectedEditorRenderState: 3
  m_MinimumChartSize: 4
  m_AutoUVMaxDistance: 0.5
  m_AutoUVMaxAngle: 89
  m_LightmapParameters: {fileID: 0}
  m_SortingLayerID: 0
  m_SortingLayer: 0
  m_SortingOrder: 0
--- !u!33 &1321135238
MeshFilter:
  m_ObjectHideFlags: 0
  m_CorrespondingSourceObject: {fileID: 33316054383031910, guid: 63f379f76f2a6d74a835d596ec65a7b9,
    type: 2}
  m_PrefabInternal: {fileID: 582482836}
  m_GameObject: {fileID: 1321135235}
  m_Mesh: {fileID: 4300000, guid: 151c592740a077a4db87e35536789d01, type: 3}
--- !u!4 &1321135239
Transform:
  m_ObjectHideFlags: 0
  m_CorrespondingSourceObject: {fileID: 4314225014232680, guid: 63f379f76f2a6d74a835d596ec65a7b9,
    type: 2}
  m_PrefabInternal: {fileID: 582482836}
  m_GameObject: {fileID: 1321135235}
  m_LocalRotation: {x: 0, y: -0, z: -0, w: 1}
  m_LocalPosition: {x: 23.9, y: 1.1403512e-17, z: -27.38}
  m_LocalScale: {x: 1, y: 1, z: 1}
  m_Children: []
  m_Father: {fileID: 0}
  m_RootOrder: 9
  m_LocalEulerAnglesHint: {x: 0, y: 0, z: 0}
--- !u!1 &1384451557
GameObject:
  m_ObjectHideFlags: 0
  m_CorrespondingSourceObject: {fileID: 1402197363545662, guid: b833ab5c78c467f43844ed9e86306c1a,
    type: 2}
  m_PrefabInternal: {fileID: 293769579}
  serializedVersion: 6
  m_Component:
  - component: {fileID: 1384451561}
  - component: {fileID: 1384451560}
  - component: {fileID: 1384451559}
  - component: {fileID: 1384451558}
  m_Layer: 0
  m_Name: Skyscraper1_2
  m_TagString: Untagged
  m_Icon: {fileID: 0}
  m_NavMeshLayer: 0
  m_StaticEditorFlags: 0
  m_IsActive: 1
--- !u!65 &1384451558
BoxCollider:
  m_ObjectHideFlags: 0
  m_CorrespondingSourceObject: {fileID: 65041265144715492, guid: b833ab5c78c467f43844ed9e86306c1a,
    type: 2}
  m_PrefabInternal: {fileID: 293769579}
  m_GameObject: {fileID: 1384451557}
  m_Material: {fileID: 0}
  m_IsTrigger: 0
  m_Enabled: 1
  serializedVersion: 2
  m_Size: {x: 11.1692, y: 20.673855, z: 7.4281683}
  m_Center: {x: 0.00062799454, y: 10.325394, z: 0.34283864}
--- !u!23 &1384451559
MeshRenderer:
  m_ObjectHideFlags: 0
  m_CorrespondingSourceObject: {fileID: 23518878226877968, guid: b833ab5c78c467f43844ed9e86306c1a,
    type: 2}
  m_PrefabInternal: {fileID: 293769579}
  m_GameObject: {fileID: 1384451557}
  m_Enabled: 1
  m_CastShadows: 1
  m_ReceiveShadows: 1
  m_DynamicOccludee: 1
  m_MotionVectors: 1
  m_LightProbeUsage: 1
  m_ReflectionProbeUsage: 1
  m_RenderingLayerMask: 4294967295
  m_Materials:
  - {fileID: 2100000, guid: 14a1a7d8e75042e49b9c79853b65f46d, type: 2}
  - {fileID: 2100000, guid: 14a1a7d8e75042e49b9c79853b65f46d, type: 2}
  - {fileID: 2100000, guid: 14a1a7d8e75042e49b9c79853b65f46d, type: 2}
  - {fileID: 2100000, guid: 14a1a7d8e75042e49b9c79853b65f46d, type: 2}
  - {fileID: 2100000, guid: 14a1a7d8e75042e49b9c79853b65f46d, type: 2}
  m_StaticBatchInfo:
    firstSubMesh: 0
    subMeshCount: 0
  m_StaticBatchRoot: {fileID: 0}
  m_ProbeAnchor: {fileID: 0}
  m_LightProbeVolumeOverride: {fileID: 0}
  m_ScaleInLightmap: 1
  m_PreserveUVs: 0
  m_IgnoreNormalsForChartDetection: 0
  m_ImportantGI: 0
  m_StitchLightmapSeams: 0
  m_SelectedEditorRenderState: 3
  m_MinimumChartSize: 4
  m_AutoUVMaxDistance: 0.5
  m_AutoUVMaxAngle: 89
  m_LightmapParameters: {fileID: 0}
  m_SortingLayerID: 0
  m_SortingLayer: 0
  m_SortingOrder: 0
--- !u!33 &1384451560
MeshFilter:
  m_ObjectHideFlags: 0
  m_CorrespondingSourceObject: {fileID: 33846775736576956, guid: b833ab5c78c467f43844ed9e86306c1a,
    type: 2}
  m_PrefabInternal: {fileID: 293769579}
  m_GameObject: {fileID: 1384451557}
  m_Mesh: {fileID: 4300000, guid: a304affcfc6fbc3418457635d3830ec1, type: 3}
--- !u!4 &1384451561
Transform:
  m_ObjectHideFlags: 0
  m_CorrespondingSourceObject: {fileID: 4773702438207688, guid: b833ab5c78c467f43844ed9e86306c1a,
    type: 2}
  m_PrefabInternal: {fileID: 293769579}
  m_GameObject: {fileID: 1384451557}
  m_LocalRotation: {x: 0, y: -0, z: -0, w: 1}
  m_LocalPosition: {x: -2.2999992, y: 6.9759977e-19, z: 30}
  m_LocalScale: {x: 1, y: 1, z: 1}
  m_Children: []
  m_Father: {fileID: 0}
  m_RootOrder: 14
  m_LocalEulerAnglesHint: {x: 0, y: 0, z: 0}
--- !u!1 &1537578181
GameObject:
  m_ObjectHideFlags: 0
  m_CorrespondingSourceObject: {fileID: 1063273179315758, guid: b5469b0116bfd4b438e367b2717acdde,
    type: 2}
  m_PrefabInternal: {fileID: 1036254984}
  serializedVersion: 6
  m_Component:
  - component: {fileID: 1537578185}
  - component: {fileID: 1537578184}
  - component: {fileID: 1537578183}
  - component: {fileID: 1537578182}
  m_Layer: 0
  m_Name: Skyscraper5_2
  m_TagString: Untagged
  m_Icon: {fileID: 0}
  m_NavMeshLayer: 0
  m_StaticEditorFlags: 0
  m_IsActive: 1
--- !u!64 &1537578182
MeshCollider:
  m_ObjectHideFlags: 0
  m_CorrespondingSourceObject: {fileID: 64275214715497604, guid: b5469b0116bfd4b438e367b2717acdde,
    type: 2}
  m_PrefabInternal: {fileID: 1036254984}
  m_GameObject: {fileID: 1537578181}
  m_Material: {fileID: 0}
  m_IsTrigger: 0
  m_Enabled: 1
  serializedVersion: 3
  m_Convex: 1
  m_CookingOptions: 14
  m_SkinWidth: 0.01
  m_Mesh: {fileID: 4300000, guid: 7c4f9f25556def74aa6828906467b46e, type: 3}
--- !u!23 &1537578183
MeshRenderer:
  m_ObjectHideFlags: 0
  m_CorrespondingSourceObject: {fileID: 23464684034517806, guid: b5469b0116bfd4b438e367b2717acdde,
    type: 2}
  m_PrefabInternal: {fileID: 1036254984}
  m_GameObject: {fileID: 1537578181}
  m_Enabled: 1
  m_CastShadows: 1
  m_ReceiveShadows: 1
  m_DynamicOccludee: 1
  m_MotionVectors: 1
  m_LightProbeUsage: 1
  m_ReflectionProbeUsage: 1
  m_RenderingLayerMask: 4294967295
  m_Materials:
  - {fileID: 2100000, guid: 14a1a7d8e75042e49b9c79853b65f46d, type: 2}
  - {fileID: 2100000, guid: 14a1a7d8e75042e49b9c79853b65f46d, type: 2}
  - {fileID: 2100000, guid: 14a1a7d8e75042e49b9c79853b65f46d, type: 2}
  - {fileID: 2100000, guid: 14a1a7d8e75042e49b9c79853b65f46d, type: 2}
  - {fileID: 2100000, guid: 14a1a7d8e75042e49b9c79853b65f46d, type: 2}
  - {fileID: 2100000, guid: 14a1a7d8e75042e49b9c79853b65f46d, type: 2}
  m_StaticBatchInfo:
    firstSubMesh: 0
    subMeshCount: 0
  m_StaticBatchRoot: {fileID: 0}
  m_ProbeAnchor: {fileID: 0}
  m_LightProbeVolumeOverride: {fileID: 0}
  m_ScaleInLightmap: 1
  m_PreserveUVs: 0
  m_IgnoreNormalsForChartDetection: 0
  m_ImportantGI: 0
  m_StitchLightmapSeams: 0
  m_SelectedEditorRenderState: 3
  m_MinimumChartSize: 4
  m_AutoUVMaxDistance: 0.5
  m_AutoUVMaxAngle: 89
  m_LightmapParameters: {fileID: 0}
  m_SortingLayerID: 0
  m_SortingLayer: 0
  m_SortingOrder: 0
--- !u!33 &1537578184
MeshFilter:
  m_ObjectHideFlags: 0
  m_CorrespondingSourceObject: {fileID: 33490677991352548, guid: b5469b0116bfd4b438e367b2717acdde,
    type: 2}
  m_PrefabInternal: {fileID: 1036254984}
  m_GameObject: {fileID: 1537578181}
  m_Mesh: {fileID: 4300000, guid: 7c4f9f25556def74aa6828906467b46e, type: 3}
--- !u!4 &1537578185
Transform:
  m_ObjectHideFlags: 0
  m_CorrespondingSourceObject: {fileID: 4909869075625906, guid: b5469b0116bfd4b438e367b2717acdde,
    type: 2}
  m_PrefabInternal: {fileID: 1036254984}
  m_GameObject: {fileID: 1537578181}
  m_LocalRotation: {x: 0, y: -0, z: -0, w: 1}
  m_LocalPosition: {x: -61.18, y: 8.553969e-18, z: -14.751047}
  m_LocalScale: {x: 1, y: 1, z: 1}
  m_Children: []
  m_Father: {fileID: 0}
  m_RootOrder: 2
  m_LocalEulerAnglesHint: {x: 0, y: 0, z: 0}
--- !u!1 &1541548022
GameObject:
  m_ObjectHideFlags: 0
  m_CorrespondingSourceObject: {fileID: 1314866738209596, guid: 2fb62c610aeedc4458a4d0808ff02bb1,
    type: 2}
  m_PrefabInternal: {fileID: 1655552494}
  serializedVersion: 6
  m_Component:
  - component: {fileID: 1541548026}
  - component: {fileID: 1541548025}
  - component: {fileID: 1541548024}
  - component: {fileID: 1541548023}
  m_Layer: 0
  m_Name: Skyscraper2_3
  m_TagString: Untagged
  m_Icon: {fileID: 0}
  m_NavMeshLayer: 0
  m_StaticEditorFlags: 0
  m_IsActive: 1
--- !u!65 &1541548023
BoxCollider:
  m_ObjectHideFlags: 0
  m_CorrespondingSourceObject: {fileID: 65325419269195694, guid: 2fb62c610aeedc4458a4d0808ff02bb1,
    type: 2}
  m_PrefabInternal: {fileID: 1655552494}
  m_GameObject: {fileID: 1541548022}
  m_Material: {fileID: 0}
  m_IsTrigger: 0
  m_Enabled: 1
  serializedVersion: 2
  m_Size: {x: 7.06247, y: 25.882519, z: 6.852542}
  m_Center: {x: -0.0018310547, y: 12.929726, z: -0.00047397614}
--- !u!23 &1541548024
MeshRenderer:
  m_ObjectHideFlags: 0
  m_CorrespondingSourceObject: {fileID: 23122004144790148, guid: 2fb62c610aeedc4458a4d0808ff02bb1,
    type: 2}
  m_PrefabInternal: {fileID: 1655552494}
  m_GameObject: {fileID: 1541548022}
  m_Enabled: 1
  m_CastShadows: 1
  m_ReceiveShadows: 1
  m_DynamicOccludee: 1
  m_MotionVectors: 1
  m_LightProbeUsage: 1
  m_ReflectionProbeUsage: 1
  m_RenderingLayerMask: 4294967295
  m_Materials:
  - {fileID: 2100000, guid: 14a1a7d8e75042e49b9c79853b65f46d, type: 2}
  - {fileID: 2100000, guid: 14a1a7d8e75042e49b9c79853b65f46d, type: 2}
  - {fileID: 2100000, guid: 14a1a7d8e75042e49b9c79853b65f46d, type: 2}
  - {fileID: 2100000, guid: 14a1a7d8e75042e49b9c79853b65f46d, type: 2}
  - {fileID: 2100000, guid: 14a1a7d8e75042e49b9c79853b65f46d, type: 2}
  m_StaticBatchInfo:
    firstSubMesh: 0
    subMeshCount: 0
  m_StaticBatchRoot: {fileID: 0}
  m_ProbeAnchor: {fileID: 0}
  m_LightProbeVolumeOverride: {fileID: 0}
  m_ScaleInLightmap: 1
  m_PreserveUVs: 0
  m_IgnoreNormalsForChartDetection: 0
  m_ImportantGI: 0
  m_StitchLightmapSeams: 0
  m_SelectedEditorRenderState: 3
  m_MinimumChartSize: 4
  m_AutoUVMaxDistance: 0.5
  m_AutoUVMaxAngle: 89
  m_LightmapParameters: {fileID: 0}
  m_SortingLayerID: 0
  m_SortingLayer: 0
  m_SortingOrder: 0
--- !u!33 &1541548025
MeshFilter:
  m_ObjectHideFlags: 0
  m_CorrespondingSourceObject: {fileID: 33271339622270946, guid: 2fb62c610aeedc4458a4d0808ff02bb1,
    type: 2}
  m_PrefabInternal: {fileID: 1655552494}
  m_GameObject: {fileID: 1541548022}
  m_Mesh: {fileID: 4300000, guid: 88d1e856335ce704a8a7211aa2b6eb78, type: 3}
--- !u!4 &1541548026
Transform:
  m_ObjectHideFlags: 0
  m_CorrespondingSourceObject: {fileID: 4847328115855086, guid: 2fb62c610aeedc4458a4d0808ff02bb1,
    type: 2}
  m_PrefabInternal: {fileID: 1655552494}
  m_GameObject: {fileID: 1541548022}
  m_LocalRotation: {x: 0, y: -0, z: -0, w: 1}
  m_LocalPosition: {x: -24.392776, y: -3.128774e-17, z: 0.3000002}
  m_LocalScale: {x: 1, y: 1, z: 1}
  m_Children: []
  m_Father: {fileID: 0}
  m_RootOrder: 10
  m_LocalEulerAnglesHint: {x: 0, y: 0, z: 0}
--- !u!1001 &1602921291
Prefab:
  m_ObjectHideFlags: 0
  serializedVersion: 2
  m_Modification:
    m_TransformParent: {fileID: 0}
    m_Modifications:
    - target: {fileID: 4885099933773506, guid: efba1b8a30c66c94ebf03f4c424b3d44, type: 2}
      propertyPath: m_LocalPosition.x
      value: -31.284157
      objectReference: {fileID: 0}
    - target: {fileID: 4885099933773506, guid: efba1b8a30c66c94ebf03f4c424b3d44, type: 2}
      propertyPath: m_LocalPosition.y
      value: 2.4300111e-17
      objectReference: {fileID: 0}
    - target: {fileID: 4885099933773506, guid: efba1b8a30c66c94ebf03f4c424b3d44, type: 2}
      propertyPath: m_LocalPosition.z
      value: -53
      objectReference: {fileID: 0}
    - target: {fileID: 4885099933773506, guid: efba1b8a30c66c94ebf03f4c424b3d44, type: 2}
      propertyPath: m_LocalRotation.x
      value: 0
      objectReference: {fileID: 0}
    - target: {fileID: 4885099933773506, guid: efba1b8a30c66c94ebf03f4c424b3d44, type: 2}
      propertyPath: m_LocalRotation.y
      value: -0
      objectReference: {fileID: 0}
    - target: {fileID: 4885099933773506, guid: efba1b8a30c66c94ebf03f4c424b3d44, type: 2}
      propertyPath: m_LocalRotation.z
      value: -0
      objectReference: {fileID: 0}
    - target: {fileID: 4885099933773506, guid: efba1b8a30c66c94ebf03f4c424b3d44, type: 2}
      propertyPath: m_LocalRotation.w
      value: 1
      objectReference: {fileID: 0}
    - target: {fileID: 4885099933773506, guid: efba1b8a30c66c94ebf03f4c424b3d44, type: 2}
      propertyPath: m_RootOrder
      value: 4
      objectReference: {fileID: 0}
    m_RemovedComponents: []
  m_SourcePrefab: {fileID: 100100000, guid: efba1b8a30c66c94ebf03f4c424b3d44, type: 2}
  m_RootGameObject: {fileID: 733839321}
  m_IsPrefabAsset: 0
--- !u!1 &1605178263
GameObject:
  m_ObjectHideFlags: 0
  m_CorrespondingSourceObject: {fileID: 1443325297327434, guid: ba5ae975d72f0044c9183132ed90b3e6,
    type: 2}
  m_PrefabInternal: {fileID: 233802125}
  serializedVersion: 6
  m_Component:
  - component: {fileID: 1605178267}
  - component: {fileID: 1605178266}
  - component: {fileID: 1605178265}
  - component: {fileID: 1605178264}
  m_Layer: 0
  m_Name: Skyscraper4_2
  m_TagString: Untagged
  m_Icon: {fileID: 0}
  m_NavMeshLayer: 0
  m_StaticEditorFlags: 0
  m_IsActive: 1
--- !u!65 &1605178264
BoxCollider:
  m_ObjectHideFlags: 0
  m_CorrespondingSourceObject: {fileID: 65420348894044390, guid: ba5ae975d72f0044c9183132ed90b3e6,
    type: 2}
  m_PrefabInternal: {fileID: 233802125}
  m_GameObject: {fileID: 1605178263}
  m_Material: {fileID: 0}
  m_IsTrigger: 0
  m_Enabled: 1
  serializedVersion: 2
  m_Size: {x: 12.099079, y: 22.373001, z: 6.852542}
  m_Center: {x: 0.108487844, y: 11.174967, z: -0.00047397614}
--- !u!23 &1605178265
MeshRenderer:
  m_ObjectHideFlags: 0
  m_CorrespondingSourceObject: {fileID: 23364795001251858, guid: ba5ae975d72f0044c9183132ed90b3e6,
    type: 2}
  m_PrefabInternal: {fileID: 233802125}
  m_GameObject: {fileID: 1605178263}
  m_Enabled: 1
  m_CastShadows: 1
  m_ReceiveShadows: 1
  m_DynamicOccludee: 1
  m_MotionVectors: 1
  m_LightProbeUsage: 1
  m_ReflectionProbeUsage: 1
  m_RenderingLayerMask: 4294967295
  m_Materials:
  - {fileID: 2100000, guid: 14a1a7d8e75042e49b9c79853b65f46d, type: 2}
  - {fileID: 2100000, guid: 14a1a7d8e75042e49b9c79853b65f46d, type: 2}
  - {fileID: 2100000, guid: 14a1a7d8e75042e49b9c79853b65f46d, type: 2}
  - {fileID: 2100000, guid: 14a1a7d8e75042e49b9c79853b65f46d, type: 2}
  - {fileID: 2100000, guid: 14a1a7d8e75042e49b9c79853b65f46d, type: 2}
  m_StaticBatchInfo:
    firstSubMesh: 0
    subMeshCount: 0
  m_StaticBatchRoot: {fileID: 0}
  m_ProbeAnchor: {fileID: 0}
  m_LightProbeVolumeOverride: {fileID: 0}
  m_ScaleInLightmap: 1
  m_PreserveUVs: 0
  m_IgnoreNormalsForChartDetection: 0
  m_ImportantGI: 0
  m_StitchLightmapSeams: 0
  m_SelectedEditorRenderState: 3
  m_MinimumChartSize: 4
  m_AutoUVMaxDistance: 0.5
  m_AutoUVMaxAngle: 89
  m_LightmapParameters: {fileID: 0}
  m_SortingLayerID: 0
  m_SortingLayer: 0
  m_SortingOrder: 0
--- !u!33 &1605178266
MeshFilter:
  m_ObjectHideFlags: 0
  m_CorrespondingSourceObject: {fileID: 33283797721855394, guid: ba5ae975d72f0044c9183132ed90b3e6,
    type: 2}
  m_PrefabInternal: {fileID: 233802125}
  m_GameObject: {fileID: 1605178263}
  m_Mesh: {fileID: 4300000, guid: 0ce9126ab804af940aedc00de590340f, type: 3}
--- !u!4 &1605178267
Transform:
  m_ObjectHideFlags: 0
  m_CorrespondingSourceObject: {fileID: 4281435771216012, guid: ba5ae975d72f0044c9183132ed90b3e6,
    type: 2}
  m_PrefabInternal: {fileID: 233802125}
  m_GameObject: {fileID: 1605178263}
  m_LocalRotation: {x: 0, y: -0, z: -0, w: 1}
  m_LocalPosition: {x: -3.6, y: 2.5535097e-17, z: -53}
  m_LocalScale: {x: 1, y: 1, z: 1}
  m_Children: []
  m_Father: {fileID: 0}
  m_RootOrder: 5
  m_LocalEulerAnglesHint: {x: 0, y: 0, z: 0}
--- !u!1001 &1616745313
Prefab:
  m_ObjectHideFlags: 0
  serializedVersion: 2
  m_Modification:
    m_TransformParent: {fileID: 0}
    m_Modifications:
    - target: {fileID: 4429051634172402, guid: 5e0a463f8e283854cb0c338ec7b3af7b, type: 2}
      propertyPath: m_LocalPosition.x
      value: -61.18
      objectReference: {fileID: 0}
    - target: {fileID: 4429051634172402, guid: 5e0a463f8e283854cb0c338ec7b3af7b, type: 2}
      propertyPath: m_LocalPosition.y
      value: 1.2906003e-17
      objectReference: {fileID: 0}
    - target: {fileID: 4429051634172402, guid: 5e0a463f8e283854cb0c338ec7b3af7b, type: 2}
      propertyPath: m_LocalPosition.z
      value: 20.61078
      objectReference: {fileID: 0}
    - target: {fileID: 4429051634172402, guid: 5e0a463f8e283854cb0c338ec7b3af7b, type: 2}
      propertyPath: m_LocalRotation.x
      value: 0
      objectReference: {fileID: 0}
    - target: {fileID: 4429051634172402, guid: 5e0a463f8e283854cb0c338ec7b3af7b, type: 2}
      propertyPath: m_LocalRotation.y
      value: -0
      objectReference: {fileID: 0}
    - target: {fileID: 4429051634172402, guid: 5e0a463f8e283854cb0c338ec7b3af7b, type: 2}
      propertyPath: m_LocalRotation.z
      value: -0
      objectReference: {fileID: 0}
    - target: {fileID: 4429051634172402, guid: 5e0a463f8e283854cb0c338ec7b3af7b, type: 2}
      propertyPath: m_LocalRotation.w
      value: 1
      objectReference: {fileID: 0}
    - target: {fileID: 4429051634172402, guid: 5e0a463f8e283854cb0c338ec7b3af7b, type: 2}
      propertyPath: m_RootOrder
      value: 3
      objectReference: {fileID: 0}
    m_RemovedComponents: []
  m_SourcePrefab: {fileID: 100100000, guid: 5e0a463f8e283854cb0c338ec7b3af7b, type: 2}
  m_RootGameObject: {fileID: 1291137947}
  m_IsPrefabAsset: 0
--- !u!1001 &1655552494
Prefab:
  m_ObjectHideFlags: 0
  serializedVersion: 2
  m_Modification:
    m_TransformParent: {fileID: 0}
    m_Modifications:
    - target: {fileID: 4847328115855086, guid: 2fb62c610aeedc4458a4d0808ff02bb1, type: 2}
      propertyPath: m_LocalPosition.x
      value: -24.392776
      objectReference: {fileID: 0}
    - target: {fileID: 4847328115855086, guid: 2fb62c610aeedc4458a4d0808ff02bb1, type: 2}
      propertyPath: m_LocalPosition.y
      value: -3.128774e-17
      objectReference: {fileID: 0}
    - target: {fileID: 4847328115855086, guid: 2fb62c610aeedc4458a4d0808ff02bb1, type: 2}
      propertyPath: m_LocalPosition.z
      value: 0.3000002
      objectReference: {fileID: 0}
    - target: {fileID: 4847328115855086, guid: 2fb62c610aeedc4458a4d0808ff02bb1, type: 2}
      propertyPath: m_LocalRotation.x
      value: 0
      objectReference: {fileID: 0}
    - target: {fileID: 4847328115855086, guid: 2fb62c610aeedc4458a4d0808ff02bb1, type: 2}
      propertyPath: m_LocalRotation.y
      value: -0
      objectReference: {fileID: 0}
    - target: {fileID: 4847328115855086, guid: 2fb62c610aeedc4458a4d0808ff02bb1, type: 2}
      propertyPath: m_LocalRotation.z
      value: -0
      objectReference: {fileID: 0}
    - target: {fileID: 4847328115855086, guid: 2fb62c610aeedc4458a4d0808ff02bb1, type: 2}
      propertyPath: m_LocalRotation.w
      value: 1
      objectReference: {fileID: 0}
    - target: {fileID: 4847328115855086, guid: 2fb62c610aeedc4458a4d0808ff02bb1, type: 2}
      propertyPath: m_RootOrder
      value: 10
      objectReference: {fileID: 0}
    m_RemovedComponents: []
  m_SourcePrefab: {fileID: 100100000, guid: 2fb62c610aeedc4458a4d0808ff02bb1, type: 2}
  m_RootGameObject: {fileID: 1541548022}
  m_IsPrefabAsset: 0
--- !u!1 &1724789049
GameObject:
  m_ObjectHideFlags: 0
  m_CorrespondingSourceObject: {fileID: 1113432599526772, guid: 1fd044b5d1a726e42a64693cac18d795,
    type: 2}
  m_PrefabInternal: {fileID: 278510417}
  serializedVersion: 6
  m_Component:
  - component: {fileID: 1724789053}
  - component: {fileID: 1724789052}
  - component: {fileID: 1724789051}
  - component: {fileID: 1724789050}
  m_Layer: 0
  m_Name: Skyscraper4_1
  m_TagString: Untagged
  m_Icon: {fileID: 0}
  m_NavMeshLayer: 0
  m_StaticEditorFlags: 0
  m_IsActive: 1
--- !u!65 &1724789050
BoxCollider:
  m_ObjectHideFlags: 0
  m_CorrespondingSourceObject: {fileID: 65426560458870218, guid: 1fd044b5d1a726e42a64693cac18d795,
    type: 2}
  m_PrefabInternal: {fileID: 278510417}
  m_GameObject: {fileID: 1724789049}
  m_Material: {fileID: 0}
  m_IsTrigger: 0
  m_Enabled: 1
  serializedVersion: 2
  m_Size: {x: 12.099079, y: 22.373001, z: 6.852542}
  m_Center: {x: 0.108487844, y: 11.174967, z: -0.00047397614}
--- !u!23 &1724789051
MeshRenderer:
  m_ObjectHideFlags: 0
  m_CorrespondingSourceObject: {fileID: 23265996250484358, guid: 1fd044b5d1a726e42a64693cac18d795,
    type: 2}
  m_PrefabInternal: {fileID: 278510417}
  m_GameObject: {fileID: 1724789049}
  m_Enabled: 1
  m_CastShadows: 1
  m_ReceiveShadows: 1
  m_DynamicOccludee: 1
  m_MotionVectors: 1
  m_LightProbeUsage: 1
  m_ReflectionProbeUsage: 1
  m_RenderingLayerMask: 4294967295
  m_Materials:
  - {fileID: 2100000, guid: 14a1a7d8e75042e49b9c79853b65f46d, type: 2}
  - {fileID: 2100000, guid: 14a1a7d8e75042e49b9c79853b65f46d, type: 2}
  - {fileID: 2100000, guid: 14a1a7d8e75042e49b9c79853b65f46d, type: 2}
  - {fileID: 2100000, guid: 14a1a7d8e75042e49b9c79853b65f46d, type: 2}
  - {fileID: 2100000, guid: 14a1a7d8e75042e49b9c79853b65f46d, type: 2}
  m_StaticBatchInfo:
    firstSubMesh: 0
    subMeshCount: 0
  m_StaticBatchRoot: {fileID: 0}
  m_ProbeAnchor: {fileID: 0}
  m_LightProbeVolumeOverride: {fileID: 0}
  m_ScaleInLightmap: 1
  m_PreserveUVs: 0
  m_IgnoreNormalsForChartDetection: 0
  m_ImportantGI: 0
  m_StitchLightmapSeams: 0
  m_SelectedEditorRenderState: 3
  m_MinimumChartSize: 4
  m_AutoUVMaxDistance: 0.5
  m_AutoUVMaxAngle: 89
  m_LightmapParameters: {fileID: 0}
  m_SortingLayerID: 0
  m_SortingLayer: 0
  m_SortingOrder: 0
--- !u!33 &1724789052
MeshFilter:
  m_ObjectHideFlags: 0
  m_CorrespondingSourceObject: {fileID: 33910077283574186, guid: 1fd044b5d1a726e42a64693cac18d795,
    type: 2}
  m_PrefabInternal: {fileID: 278510417}
  m_GameObject: {fileID: 1724789049}
  m_Mesh: {fileID: 4300000, guid: c286577b7c67ebc4d902a09b17434a63, type: 3}
--- !u!4 &1724789053
Transform:
  m_ObjectHideFlags: 0
  m_CorrespondingSourceObject: {fileID: 4571635531416200, guid: 1fd044b5d1a726e42a64693cac18d795,
    type: 2}
  m_PrefabInternal: {fileID: 278510417}
  m_GameObject: {fileID: 1724789049}
  m_LocalRotation: {x: 0, y: -0, z: -0, w: 1}
  m_LocalPosition: {x: 28.013218, y: 2.3042822e-17, z: -53}
  m_LocalScale: {x: 1, y: 1, z: 1}
  m_Children: []
  m_Father: {fileID: 0}
  m_RootOrder: 6
  m_LocalEulerAnglesHint: {x: 0, y: 0, z: 0}
--- !u!1001 &1730241960
Prefab:
  m_ObjectHideFlags: 0
  serializedVersion: 2
  m_Modification:
    m_TransformParent: {fileID: 0}
    m_Modifications:
    - target: {fileID: 4743080313763172, guid: 306a85011bd56dc419ea7f095d02196e, type: 2}
      propertyPath: m_LocalPosition.x
      value: -3.2999992
      objectReference: {fileID: 0}
    - target: {fileID: 4743080313763172, guid: 306a85011bd56dc419ea7f095d02196e, type: 2}
      propertyPath: m_LocalPosition.y
      value: -2.6581437e-17
      objectReference: {fileID: 0}
    - target: {fileID: 4743080313763172, guid: 306a85011bd56dc419ea7f095d02196e, type: 2}
      propertyPath: m_LocalPosition.z
      value: 0.3
      objectReference: {fileID: 0}
    - target: {fileID: 4743080313763172, guid: 306a85011bd56dc419ea7f095d02196e, type: 2}
      propertyPath: m_LocalRotation.x
      value: 0
      objectReference: {fileID: 0}
    - target: {fileID: 4743080313763172, guid: 306a85011bd56dc419ea7f095d02196e, type: 2}
      propertyPath: m_LocalRotation.y
      value: -0
      objectReference: {fileID: 0}
    - target: {fileID: 4743080313763172, guid: 306a85011bd56dc419ea7f095d02196e, type: 2}
      propertyPath: m_LocalRotation.z
      value: -0
      objectReference: {fileID: 0}
    - target: {fileID: 4743080313763172, guid: 306a85011bd56dc419ea7f095d02196e, type: 2}
      propertyPath: m_LocalRotation.w
      value: 1
      objectReference: {fileID: 0}
    - target: {fileID: 4743080313763172, guid: 306a85011bd56dc419ea7f095d02196e, type: 2}
      propertyPath: m_RootOrder
      value: 11
      objectReference: {fileID: 0}
    m_RemovedComponents: []
  m_SourcePrefab: {fileID: 100100000, guid: 306a85011bd56dc419ea7f095d02196e, type: 2}
  m_RootGameObject: {fileID: 569572360}
  m_IsPrefabAsset: 0
--- !u!1 &1814238605
GameObject:
  m_ObjectHideFlags: 0
  m_CorrespondingSourceObject: {fileID: 1644484541526332, guid: 30c0eb0ecd8987946bd176a2e155b866,
    type: 2}
  m_PrefabInternal: {fileID: 1276230364}
  serializedVersion: 6
  m_Component:
  - component: {fileID: 1814238609}
  - component: {fileID: 1814238608}
  - component: {fileID: 1814238607}
  - component: {fileID: 1814238606}
  m_Layer: 0
  m_Name: Skyscraper5_3
  m_TagString: Untagged
  m_Icon: {fileID: 0}
  m_NavMeshLayer: 0
  m_StaticEditorFlags: 0
  m_IsActive: 1
--- !u!64 &1814238606
MeshCollider:
  m_ObjectHideFlags: 0
  m_CorrespondingSourceObject: {fileID: 64864002111529766, guid: 30c0eb0ecd8987946bd176a2e155b866,
    type: 2}
  m_PrefabInternal: {fileID: 1276230364}
  m_GameObject: {fileID: 1814238605}
  m_Material: {fileID: 0}
  m_IsTrigger: 0
  m_Enabled: 1
  serializedVersion: 3
  m_Convex: 1
  m_CookingOptions: 14
  m_SkinWidth: 0.01
  m_Mesh: {fileID: 4300000, guid: 7dfb092ed9a3a1d41b139d7070a00fa0, type: 3}
--- !u!23 &1814238607
MeshRenderer:
  m_ObjectHideFlags: 0
  m_CorrespondingSourceObject: {fileID: 23758392763175832, guid: 30c0eb0ecd8987946bd176a2e155b866,
    type: 2}
  m_PrefabInternal: {fileID: 1276230364}
  m_GameObject: {fileID: 1814238605}
  m_Enabled: 1
  m_CastShadows: 1
  m_ReceiveShadows: 1
  m_DynamicOccludee: 1
  m_MotionVectors: 1
  m_LightProbeUsage: 1
  m_ReflectionProbeUsage: 1
  m_RenderingLayerMask: 4294967295
  m_Materials:
  - {fileID: 2100000, guid: 14a1a7d8e75042e49b9c79853b65f46d, type: 2}
  - {fileID: 2100000, guid: 14a1a7d8e75042e49b9c79853b65f46d, type: 2}
  - {fileID: 2100000, guid: 14a1a7d8e75042e49b9c79853b65f46d, type: 2}
  - {fileID: 2100000, guid: 14a1a7d8e75042e49b9c79853b65f46d, type: 2}
  - {fileID: 2100000, guid: 14a1a7d8e75042e49b9c79853b65f46d, type: 2}
  - {fileID: 2100000, guid: 14a1a7d8e75042e49b9c79853b65f46d, type: 2}
  m_StaticBatchInfo:
    firstSubMesh: 0
    subMeshCount: 0
  m_StaticBatchRoot: {fileID: 0}
  m_ProbeAnchor: {fileID: 0}
  m_LightProbeVolumeOverride: {fileID: 0}
  m_ScaleInLightmap: 1
  m_PreserveUVs: 0
  m_IgnoreNormalsForChartDetection: 0
  m_ImportantGI: 0
  m_StitchLightmapSeams: 0
  m_SelectedEditorRenderState: 3
  m_MinimumChartSize: 4
  m_AutoUVMaxDistance: 0.5
  m_AutoUVMaxAngle: 89
  m_LightmapParameters: {fileID: 0}
  m_SortingLayerID: 0
  m_SortingLayer: 0
  m_SortingOrder: 0
--- !u!33 &1814238608
MeshFilter:
  m_ObjectHideFlags: 0
  m_CorrespondingSourceObject: {fileID: 33540563074248174, guid: 30c0eb0ecd8987946bd176a2e155b866,
    type: 2}
  m_PrefabInternal: {fileID: 1276230364}
  m_GameObject: {fileID: 1814238605}
  m_Mesh: {fileID: 4300000, guid: 7dfb092ed9a3a1d41b139d7070a00fa0, type: 3}
--- !u!4 &1814238609
Transform:
  m_ObjectHideFlags: 0
  m_CorrespondingSourceObject: {fileID: 4993226966828476, guid: 30c0eb0ecd8987946bd176a2e155b866,
    type: 2}
  m_PrefabInternal: {fileID: 1276230364}
  m_GameObject: {fileID: 1814238605}
  m_LocalRotation: {x: 0, y: -0, z: -0, w: 1}
  m_LocalPosition: {x: -61.18, y: 2.4118833e-17, z: -49.8}
  m_LocalScale: {x: 1, y: 1, z: 1}
  m_Children: []
  m_Father: {fileID: 0}
  m_RootOrder: 1
  m_LocalEulerAnglesHint: {x: 0, y: 0, z: 0}
--- !u!1001 &1930699879
Prefab:
  m_ObjectHideFlags: 0
  serializedVersion: 2
  m_Modification:
    m_TransformParent: {fileID: 0}
    m_Modifications:
    - target: {fileID: 4593418985181984, guid: 7fc4490f0a1b22a4e9d9ae177d4febe4, type: 2}
      propertyPath: m_LocalPosition.x
      value: -1.3404837
      objectReference: {fileID: 0}
    - target: {fileID: 4593418985181984, guid: 7fc4490f0a1b22a4e9d9ae177d4febe4, type: 2}
      propertyPath: m_LocalPosition.y
      value: 1.28037864e-17
      objectReference: {fileID: 0}
    - target: {fileID: 4593418985181984, guid: 7fc4490f0a1b22a4e9d9ae177d4febe4, type: 2}
      propertyPath: m_LocalPosition.z
      value: -27.38
      objectReference: {fileID: 0}
    - target: {fileID: 4593418985181984, guid: 7fc4490f0a1b22a4e9d9ae177d4febe4, type: 2}
      propertyPath: m_LocalRotation.x
      value: 0
      objectReference: {fileID: 0}
    - target: {fileID: 4593418985181984, guid: 7fc4490f0a1b22a4e9d9ae177d4febe4, type: 2}
      propertyPath: m_LocalRotation.y
      value: -0
      objectReference: {fileID: 0}
    - target: {fileID: 4593418985181984, guid: 7fc4490f0a1b22a4e9d9ae177d4febe4, type: 2}
      propertyPath: m_LocalRotation.z
      value: -0
      objectReference: {fileID: 0}
    - target: {fileID: 4593418985181984, guid: 7fc4490f0a1b22a4e9d9ae177d4febe4, type: 2}
      propertyPath: m_LocalRotation.w
      value: 1
      objectReference: {fileID: 0}
    - target: {fileID: 4593418985181984, guid: 7fc4490f0a1b22a4e9d9ae177d4febe4, type: 2}
      propertyPath: m_RootOrder
      value: 8
      objectReference: {fileID: 0}
    m_RemovedComponents: []
  m_SourcePrefab: {fileID: 100100000, guid: 7fc4490f0a1b22a4e9d9ae177d4febe4, type: 2}
  m_RootGameObject: {fileID: 444453672}
  m_IsPrefabAsset: 0
--- !u!1001 &1994839844
Prefab:
  m_ObjectHideFlags: 0
  serializedVersion: 2
  m_Modification:
    m_TransformParent: {fileID: 0}
    m_Modifications:
    - target: {fileID: 4042084934314430, guid: f732fda027cda2a47ab832d94c394cd9, type: 2}
      propertyPath: m_LocalPosition.x
      value: 23.5
      objectReference: {fileID: 0}
    - target: {fileID: 4042084934314430, guid: f732fda027cda2a47ab832d94c394cd9, type: 2}
      propertyPath: m_LocalPosition.y
      value: 4.182484e-18
      objectReference: {fileID: 0}
    - target: {fileID: 4042084934314430, guid: f732fda027cda2a47ab832d94c394cd9, type: 2}
      propertyPath: m_LocalPosition.z
      value: 30
      objectReference: {fileID: 0}
    - target: {fileID: 4042084934314430, guid: f732fda027cda2a47ab832d94c394cd9, type: 2}
      propertyPath: m_LocalRotation.x
      value: 0
      objectReference: {fileID: 0}
    - target: {fileID: 4042084934314430, guid: f732fda027cda2a47ab832d94c394cd9, type: 2}
      propertyPath: m_LocalRotation.y
      value: 0
      objectReference: {fileID: 0}
    - target: {fileID: 4042084934314430, guid: f732fda027cda2a47ab832d94c394cd9, type: 2}
      propertyPath: m_LocalRotation.z
      value: 0
      objectReference: {fileID: 0}
    - target: {fileID: 4042084934314430, guid: f732fda027cda2a47ab832d94c394cd9, type: 2}
      propertyPath: m_LocalRotation.w
      value: 1
      objectReference: {fileID: 0}
    - target: {fileID: 4042084934314430, guid: f732fda027cda2a47ab832d94c394cd9, type: 2}
      propertyPath: m_RootOrder
      value: 15
      objectReference: {fileID: 0}
    m_RemovedComponents: []
  m_SourcePrefab: {fileID: 100100000, guid: f732fda027cda2a47ab832d94c394cd9, type: 2}
  m_RootGameObject: {fileID: 897667772}
  m_IsPrefabAsset: 0
